IP = newp;
IL = newl;
ILL = newll;
IS = news;
IFI = newf;
Point ( IP + 0 ) = {0, 0, 0 };
Point ( IP + 1 ) = {0, 0,6.37101e+06};
PolarSphere ( IS + 0 ) = {IP , IP+1};
Point ( IP + 2 ) = {-0.2337128564209985, -0.040481133043644, 0 };
Point ( IP + 3 ) = {-0.2312001090949423, -0.03941693926440925, 0 };
Point ( IP + 4 ) = {-0.2339478466977855, -0.03502612402209467, 0 };
Point ( IP + 5 ) = {-0.2389902237302426, -0.03656684824632637, 0 };
Point ( IP + 6 ) = {-0.2379020484667336, -0.03293745970225146, 0 };
Point ( IP + 7 ) = {-0.2386988572984707, -0.02923793983166645, 0 };
Point ( IP + 8 ) = {-0.2424584860027378, -0.02659218547792429, 0 };
Point ( IP + 9 ) = {-0.2445057348775477, -0.02865368154810245, 0 };
Point ( IP + 10 ) = {-0.2467374374120876, -0.02833722282071723, 0 };
Point ( IP + 11 ) = {-0.2459433684074919, -0.02554930828309303, 0 };
Point ( IP + 12 ) = {-0.2465573551489556, -0.02200056311705626, 0 };
Point ( IP + 13 ) = {-0.249276300658689, -0.02259099941252825, 0 };
Point ( IP + 14 ) = {-0.2493936776702613, -0.02266003134579332, 0 };
Point ( IP + 15 ) = {-0.2522620053886209, -0.0220587260529266, 0 };
Point ( IP + 16 ) = {-0.2537348497594309, -0.02210571067514093, 0 };
Point ( IP + 17 ) = {-0.2539407778412591, -0.02523077865473903, 0 };
Point ( IP + 18 ) = {-0.2565710582334226, -0.0234927822754369, 0 };
Point ( IP + 19 ) = {-0.2551211108253771, -0.02914775449802475, 0 };
Point ( IP + 20 ) = {-0.2529554654159339, -0.02995405253774304, 0 };
Point ( IP + 21 ) = {-0.2550552958953388, -0.03280141857631032, 0 };
Point ( IP + 22 ) = {-0.257896220234253, -0.03222946018132096, 0 };
Point ( IP + 23 ) = {-0.2552575795764467, -0.02974476543777148, 0 };
Point ( IP + 24 ) = {-0.2573077354894496, -0.02261333132937223, 0 };
Point ( IP + 25 ) = {-0.2594326242316353, -0.0224577678592144, 0 };
Point ( IP + 26 ) = {-0.2617868095821511, -0.02417757619212488, 0 };
Point ( IP + 27 ) = {-0.2633770510224386, -0.02382641453343793, 0 };
Point ( IP + 28 ) = {-0.2655119293662632, -0.02529283100221127, 0 };
Point ( IP + 29 ) = {-0.26775357938469, -0.02600172788020334, 0 };
Point ( IP + 30 ) = {-0.2712581347915461, -0.02480192006523839, 0 };
Point ( IP + 31 ) = {-0.273559719121227, -0.02705550449211477, 0 };
Point ( IP + 32 ) = {-0.2750745293558412, -0.02837335253581078, 0 };
Point ( IP + 33 ) = {-0.2749704315942891, -0.03204579380583077, 0 };
Point ( IP + 34 ) = {-0.2771602753329423, -0.03052928281433832, 0 };
Point ( IP + 35 ) = {-0.2757094598453461, -0.02690804995776199, 0 };
Point ( IP + 36 ) = {-0.2801767178721208, -0.02778030243504855, 0 };
Point ( IP + 37 ) = {-0.28476226806069, -0.03520827378668104, 0 };
Point ( IP + 38 ) = {-0.2827856039170799, -0.04083413641335946, 0 };
Point ( IP + 39 ) = {-0.2722596002869841, -0.0456500595216501, 0 };
LoopStart0 = IP + 2;
LoopEnd0 = IP + 39;
BSpline ( IL + 0 ) = { IP + 2 : IP + 39 };
Point ( IP + 40 ) = {-0.2917484681631136, -0.04410515618711338, 0 };
Point ( IP + 41 ) = {-0.314367225635981, -0.04572534167568378, 0 };
Point ( IP + 42 ) = {-0.3128676932660609, -0.04737699179751834, 0 };
Point ( IP + 43 ) = {-0.3162762219604471, -0.05017261342098188, 0 };
Point ( IP + 44 ) = {-0.3184133922527577, -0.04800834280088809, 0 };
Point ( IP + 45 ) = {-0.3222139885302627, -0.04912342867476342, 0 };
Point ( IP + 46 ) = {-0.3273769101496742, -0.04896006861563936, 0 };
Point ( IP + 47 ) = {-0.3244854254207503, -0.04535353992406616, 0 };
Point ( IP + 48 ) = {-0.3264041001106643, -0.04061544596859713, 0 };
Point ( IP + 49 ) = {-0.3296472761353985, -0.04298012778892671, 0 };
Point ( IP + 50 ) = {-0.3290154502104018, -0.03387469487284491, 0 };
Point ( IP + 51 ) = {-0.3324138575176468, -0.03103671770030882, 0 };
Point ( IP + 52 ) = {-0.3368755669978753, -0.03448078959614244, 0 };
Point ( IP + 53 ) = {-0.3398676070234711, -0.03124905470802142, 0 };
Point ( IP + 54 ) = {-0.3337728152607738, -0.02763662167693129, 0 };
Point ( IP + 55 ) = {-0.3438433068573861, -0.02408926459589629, 0 };
Point ( IP + 56 ) = {-0.3459883254759316, -0.02811563361194614, 0 };
Point ( IP + 57 ) = {-0.3482646250233374, -0.02087762951026732, 0 };
Point ( IP + 58 ) = {-0.355231469847619, -0.009818757645144748, 0 };
Point ( IP + 59 ) = {-0.3620066797924877, -0.01052769905204099, 0 };
Point ( IP + 60 ) = {-0.3706262483516267, -1.81122153185417e-07, 0 };
Point ( IP + 61 ) = {-0.366451867623008, 0.01241275893293862, 0 };
Point ( IP + 62 ) = {-0.3774260123730145, 0.008943969488605144, 0 };
Point ( IP + 63 ) = {-0.378487594227472, 0.0177609298284439, 0 };
Point ( IP + 64 ) = {-0.3745008233701421, 0.02012928478442827, 0 };
Point ( IP + 65 ) = {-0.3774809514044462, 0.03156600658503446, 0 };
Point ( IP + 66 ) = {-0.3797838013538821, 0.03077925372606126, 0 };
Point ( IP + 67 ) = {-0.3847804295681875, 0.02944962056557533, 0 };
Point ( IP + 68 ) = {-0.3884777216821977, 0.01621411990898955, 0 };
Point ( IP + 69 ) = {-0.3988318321043003, 0.01262108850343821, 0 };
Point ( IP + 70 ) = {-0.4007412245965209, 0.007703762469587002, 0 };
Point ( IP + 71 ) = {-0.4070557826924026, 0.00879649599122146, 0 };
Point ( IP + 72 ) = {-0.4084292273032056, 0.007812726367264242, 0 };
Point ( IP + 73 ) = {-0.4301851336442333, 0.0120541497086189, 0 };
Point ( IP + 74 ) = {-0.4265787172900729, 0.05274931250223488, 0 };
Point ( IP + 75 ) = {-0.4227826543739415, 0.05707521677695152, 0 };
Point ( IP + 76 ) = {-0.428539963059815, 0.07019210776104813, 0 };
Point ( IP + 77 ) = {-0.4366612032698183, 0.06603620218560101, 0 };
Point ( IP + 78 ) = {-0.4595857412809253, 0.07108945651369471, 0 };
Point ( IP + 79 ) = {-0.472725026190915, 0.0791103386282087, 0 };
Point ( IP + 80 ) = {-0.4770416825728005, 0.07748131134720224, 0 };
Point ( IP + 81 ) = {-0.4778148499755651, 0.07445358358883385, 0 };
Point ( IP + 82 ) = {-0.4922073216664787, 0.07791786089737816, 0 };
Point ( IP + 83 ) = {-0.4918405984899714, 0.05922917917430018, 0 };
Point ( IP + 84 ) = {-0.5070818168185079, 0.04979501663560776, 0 };
Point ( IP + 85 ) = {-0.5001615798318818, 0.03861705604677186, 0 };
Point ( IP + 86 ) = {-0.5011772626527928, 0.01860360978543439, 0 };
Point ( IP + 87 ) = {-0.493072714097503, 0.01249534595942061, 0 };
Point ( IP + 88 ) = {-0.4919459449152817, 0.00616083192326985, 0 };
Point ( IP + 89 ) = {-0.4841096733655066, 0.004263487269268976, 0 };
Point ( IP + 90 ) = {-0.479777521897126, -0.001971547915969747, 0 };
Point ( IP + 91 ) = {-0.4755705638902087, 0.002009831567157834, 0 };
Point ( IP + 92 ) = {-0.4690705525047177, 0.001477268436342575, 0 };
Point ( IP + 93 ) = {-0.4552955181785054, -0.007787792125233763, 0 };
Point ( IP + 94 ) = {-0.4456694688997386, -0.02494258749048881, 0 };
Point ( IP + 95 ) = {-0.4359645121228675, -0.02247535684412043, 0 };
Point ( IP + 96 ) = {-0.4311057347932514, -0.02511513230786609, 0 };
Point ( IP + 97 ) = {-0.427910976099785, -0.03056065001256503, 0 };
Point ( IP + 98 ) = {-0.4319982930954441, -0.04661218972041706, 0 };
Point ( IP + 99 ) = {-0.4151965526824913, -0.06388652388365787, 0 };
LoopStart1 = IP + 40;
LoopEnd1 = IP + 99;
BSpline ( IL + 1 ) = { IP + 40 : IP + 99 };
Point ( IP + 100 ) = {-0.4876393931849977, -0.08374796233376533, 0 };
Point ( IP + 101 ) = {-0.4955463195516376, -0.06876248735528351, 0 };
Point ( IP + 102 ) = {-0.4945255170092466, -0.05560806823263498, 0 };
Point ( IP + 103 ) = {-0.5003130316785743, -0.04680140800925437, 0 };
Point ( IP + 104 ) = {-0.4982408229421665, -0.03393049208049868, 0 };
Point ( IP + 105 ) = {-0.5040196528176709, -0.009538094945607499, 0 };
Point ( IP + 106 ) = {-0.5112536573187334, -0, 0 };
Point ( IP + 107 ) = {-0.5124512642230883, 0.008385963083881735, 0 };
Point ( IP + 108 ) = {-0.5194278663929366, 0.01775306748535843, 0 };
Point ( IP + 109 ) = {-0.5187289272890885, 0.0256430928627365, 0 };
Point ( IP + 110 ) = {-0.514977803044823, 0.02680083175138137, 0 };
Point ( IP + 111 ) = {-0.5165470775913477, 0.04236251614028317, 0 };
Point ( IP + 112 ) = {-0.5081117850286043, 0.04866480585893591, 0 };
Point ( IP + 113 ) = {-0.5090842650193558, 0.05291982172725517, 0 };
Point ( IP + 114 ) = {-0.5276732188409193, 0.06303798226180857, 0 };
Point ( IP + 115 ) = {-0.5409140978075173, 0.08845314048247986, 0 };
Point ( IP + 116 ) = {-0.5529361510997591, 0.0959680982412857, 0 };
Point ( IP + 117 ) = {-0.5683375233554823, 0.09676944211934939, 0 };
Point ( IP + 118 ) = {-0.576132323419592, 0.1038488528522804, 0 };
Point ( IP + 119 ) = {-0.5852744813376763, 0.1193414074796005, 0 };
Point ( IP + 120 ) = {-0.5861650572570107, 0.1344205082632016, 0 };
Point ( IP + 121 ) = {-0.5994719800043259, 0.145595258180725, 0 };
Point ( IP + 122 ) = {-0.6027518663324545, 0.1554941459025193, 0 };
Point ( IP + 123 ) = {-0.6193695238125093, 0.1648452203192319, 0 };
Point ( IP + 124 ) = {-0.6268636605126401, 0.1787491867587249, 0 };
Point ( IP + 125 ) = {-0.647548352208997, 0.1977653278163182, 0 };
Point ( IP + 126 ) = {-0.6588700044998458, 0.2027857924946223, 0 };
Point ( IP + 127 ) = {-0.6555764079206903, 0.199335929085335, 0 };
Point ( IP + 128 ) = {-0.6696061617609144, 0.1945121752836348, 0 };
Point ( IP + 129 ) = {-0.6789650079068842, 0.2017363983018112, 0 };
Point ( IP + 130 ) = {-0.7014850644128447, 0.2017274154837313, 0 };
Point ( IP + 131 ) = {-0.7262090815627951, 0.2161757138172527, 0 };
LoopStart2 = IP + 100;
LoopEnd2 = IP + 131;
BSpline ( IL + 2 ) = { IP + 100 : IP + 131 };
Point ( IP + 132 ) = {-0.08799171642275454, 0.7587696757933067, 0 };
Point ( IP + 133 ) = {-0.06540629655201645, 0.7508844975396752, 0 };
Point ( IP + 134 ) = {-0.02451340697932889, 0.7575221126127035, 0 };
Point ( IP + 135 ) = {-0.01401378507919123, 0.7549221145146583, 0 };
Point ( IP + 136 ) = {-0.02303651854685262, 0.7401775500503252, 0 };
Point ( IP + 137 ) = {-0.02401835699627827, 0.7214172207136649, 0 };
Point ( IP + 138 ) = {-0.02016849125418696, 0.7212286349839891, 0 };
Point ( IP + 139 ) = {-0.02431072300758033, 0.7147664699764704, 0 };
Point ( IP + 140 ) = {-0.0272985313322075, 0.7235214964228873, 0 };
Point ( IP + 141 ) = {-0.03181736646443416, 0.7048047989987314, 0 };
Point ( IP + 142 ) = {-0.02773706962435434, 0.7039374034522917, 0 };
Point ( IP + 143 ) = {-0.03824016899085965, 0.6818166960365423, 0 };
Point ( IP + 144 ) = {-0.02208345377580476, 0.6788572003005138, 0 };
Point ( IP + 145 ) = {0.00338130191708564, 0.6865890160327637, 0 };
Point ( IP + 146 ) = {0.008893369537467933, 0.7084677821460051, 0 };
Point ( IP + 147 ) = {0.01957292980235122, 0.7204308252469358, 0 };
Point ( IP + 148 ) = {0.02935970215274923, 0.716924549454264, 0 };
Point ( IP + 149 ) = {0.05589004482184903, 0.7235768050099393, 0 };
Point ( IP + 150 ) = {0.06480644375498132, 0.7140627507664716, 0 };
Point ( IP + 151 ) = {0.07317540025889215, 0.7132880137780362, 0 };
Point ( IP + 152 ) = {0.09110394454456448, 0.6673922050028018, 0 };
Point ( IP + 153 ) = {0.09156595884252396, 0.6606331303459346, 0 };
Point ( IP + 154 ) = {0.08799009971765347, 0.6368635344833887, 0 };
Point ( IP + 155 ) = {0.08613628240876836, 0.6280266925976742, 0 };
Point ( IP + 156 ) = {0.08149215423415883, 0.6265961724699223, 0 };
Point ( IP + 157 ) = {0.08343277066414902, 0.6313928966276949, 0 };
Point ( IP + 158 ) = {0.07777694556129881, 0.6204986285617122, 0 };
Point ( IP + 159 ) = {0.07875283925515827, 0.6045365985608596, 0 };
Point ( IP + 160 ) = {0.07846380417866744, 0.6037597095602202, 0 };
Point ( IP + 161 ) = {0.07497982882189347, 0.5941287152205498, 0 };
Point ( IP + 162 ) = {0.06640465006946386, 0.5918942208860006, 0 };
Point ( IP + 163 ) = {0.06444613639216101, 0.5915512116383789, 0 };
Point ( IP + 164 ) = {0.05252226845468633, 0.5858922781064078, 0 };
Point ( IP + 165 ) = {0.05052377155584321, 0.5784777613309324, 0 };
Point ( IP + 166 ) = {0.04538522881437563, 0.5807414058295319, 0 };
Point ( IP + 167 ) = {0.04864590261639161, 0.5827849883362374, 0 };
Point ( IP + 168 ) = {0.03893823255442282, 0.5797862352100273, 0 };
Point ( IP + 169 ) = {0.03885859404056444, 0.5796258542364585, 0 };
Point ( IP + 170 ) = {0.02362868523392827, 0.5823255176027705, 0 };
Point ( IP + 171 ) = {0.01848729001552469, 0.5790028838713116, 0 };
Point ( IP + 172 ) = {0.008807896561329633, 0.5879418459141218, 0 };
Point ( IP + 173 ) = {0.004542730246764298, 0.5849222821509046, 0 };
Point ( IP + 174 ) = {0.001178396578788897, 0.5873909032203143, 0 };
Point ( IP + 175 ) = {0.001992779508143191, 0.5823714126838702, 0 };
Point ( IP + 176 ) = {-0.002375662717552531, 0.5834170358184972, 0 };
Point ( IP + 177 ) = {-0.006032384468851323, 0.5899601520743791, 0 };
Point ( IP + 178 ) = {-0.0102567653872125, 0.5868108833340862, 0 };
Point ( IP + 179 ) = {-0.002968942747029653, 0.5824445165364472, 0 };
Point ( IP + 180 ) = {-0.007696179070221556, 0.578609153259018, 0 };
Point ( IP + 181 ) = {-0.01865522539349913, 0.5734371284815295, 0 };
Point ( IP + 182 ) = {-0.01975631407124047, 0.5744339814751224, 0 };
Point ( IP + 183 ) = {-0.02814516481444301, 0.5726814052755577, 0 };
Point ( IP + 184 ) = {-0.03481136598927619, 0.5717628672984217, 0 };
Point ( IP + 185 ) = {-0.04419078258174664, 0.5720299860135591, 0 };
Point ( IP + 186 ) = {-0.04705604181980969, 0.5793664341970464, 0 };
Point ( IP + 187 ) = {-0.05809756314153811, 0.5727884278667569, 0 };
Point ( IP + 188 ) = {-0.06362961137564198, 0.5747122492879343, 0 };
Point ( IP + 189 ) = {-0.07579226028560505, 0.5856710285079149, 0 };
Point ( IP + 190 ) = {-0.07494050320247486, 0.5977265004842162, 0 };
Point ( IP + 191 ) = {-0.07950507758276149, 0.5962266296134958, 0 };
Point ( IP + 192 ) = {-0.07720929059623897, 0.6021939303940176, 0 };
Point ( IP + 193 ) = {-0.08161929171816928, 0.6083712863321844, 0 };
Point ( IP + 194 ) = {-0.08531936942382787, 0.6071151475037591, 0 };
Point ( IP + 195 ) = {-0.09001322921880417, 0.6194463101649652, 0 };
Point ( IP + 196 ) = {-0.09829495122589303, 0.622457444022495, 0 };
Point ( IP + 197 ) = {-0.09844895404211951, 0.627964795974155, 0 };
Point ( IP + 198 ) = {-0.1042266942173905, 0.6263882477767463, 0 };
Point ( IP + 199 ) = {-0.104507149373704, 0.6290052707469522, 0 };
Point ( IP + 200 ) = {-0.1064818246920629, 0.6058463016819308, 0 };
Point ( IP + 201 ) = {-0.08227622778450688, 0.5573156091032039, 0 };
Point ( IP + 202 ) = {-0.0894727543840694, 0.5445497859502152, 0 };
Point ( IP + 203 ) = {-0.08989049218390095, 0.5440188995034831, 0 };
Point ( IP + 204 ) = {-0.1039905633716132, 0.5241077467660845, 0 };
Point ( IP + 205 ) = {-0.1233182649935041, 0.50705863838452, 0 };
Point ( IP + 206 ) = {-0.1211416462230704, 0.5032850705133282, 0 };
Point ( IP + 207 ) = {-0.1237125767083016, 0.5019326948074229, 0 };
Point ( IP + 208 ) = {-0.1266291313936276, 0.4977950959856166, 0 };
Point ( IP + 209 ) = {-0.1246319310844444, 0.4943320174439196, 0 };
Point ( IP + 210 ) = {-0.1248283857474187, 0.4931872865065721, 0 };
Point ( IP + 211 ) = {-0.1278578057315899, 0.4957605111239569, 0 };
Point ( IP + 212 ) = {-0.1208490674000325, 0.4845770288394037, 0 };
Point ( IP + 213 ) = {-0.1169148904528974, 0.4836623893925245, 0 };
Point ( IP + 214 ) = {-0.1157354441304593, 0.4822149315954924, 0 };
Point ( IP + 215 ) = {-0.1166501065120384, 0.4784685736086015, 0 };
Point ( IP + 216 ) = {-0.1159916101602932, 0.4781027918597945, 0 };
Point ( IP + 217 ) = {-0.1163100376145241, 0.4748761213138932, 0 };
Point ( IP + 218 ) = {-0.1060968318298451, 0.4722393138193896, 0 };
Point ( IP + 219 ) = {-0.1061801777723092, 0.4687209890277022, 0 };
Point ( IP + 220 ) = {-0.1152214680127415, 0.473511388080955, 0 };
Point ( IP + 221 ) = {-0.1210187695187601, 0.4727497120026564, 0 };
Point ( IP + 222 ) = {-0.1207381843014469, 0.4823998377272167, 0 };
Point ( IP + 223 ) = {-0.1246589336442339, 0.4669581327382618, 0 };
Point ( IP + 224 ) = {-0.1247175514120763, 0.461024764696621, 0 };
Point ( IP + 225 ) = {-0.1284516604753235, 0.4508476125950109, 0 };
Point ( IP + 226 ) = {-0.1247933021675161, 0.443695459920599, 0 };
Point ( IP + 227 ) = {-0.1286251847496427, 0.4367267695048305, 0 };
Point ( IP + 228 ) = {-0.1435374993723069, 0.428548505186427, 0 };
Point ( IP + 229 ) = {-0.1453704527597033, 0.426889938990406, 0 };
Point ( IP + 230 ) = {-0.1538771058339848, 0.4217334223957307, 0 };
Point ( IP + 231 ) = {-0.151715741042498, 0.4181192707245767, 0 };
Point ( IP + 232 ) = {-0.1508597270745308, 0.4221311146410834, 0 };
Point ( IP + 233 ) = {-0.1432606362604091, 0.4174596632025311, 0 };
Point ( IP + 234 ) = {-0.1443562613524101, 0.4022813391554851, 0 };
Point ( IP + 235 ) = {-0.1476244703163175, 0.4008057743948616, 0 };
Point ( IP + 236 ) = {-0.1463187590820396, 0.3974728097308063, 0 };
Point ( IP + 237 ) = {-0.1509049499851991, 0.3974882153133481, 0 };
Point ( IP + 238 ) = {-0.1521765670320348, 0.3928412437033388, 0 };
Point ( IP + 239 ) = {-0.1550973966935097, 0.3886435563837299, 0 };
Point ( IP + 240 ) = {-0.1573319082982425, 0.3905654089032684, 0 };
Point ( IP + 241 ) = {-0.1629216413358536, 0.3828668014815735, 0 };
Point ( IP + 242 ) = {-0.1597027239773011, 0.3796796954787443, 0 };
Point ( IP + 243 ) = {-0.1652037262679873, 0.3791882233910914, 0 };
Point ( IP + 244 ) = {-0.1739951572840764, 0.3721784776819285, 0 };
Point ( IP + 245 ) = {-0.1788821074501587, 0.3716721775985071, 0 };
Point ( IP + 246 ) = {-0.169817143200399, 0.3834254205740085, 0 };
Point ( IP + 247 ) = {-0.1723267599810605, 0.3901728652601152, 0 };
Point ( IP + 248 ) = {-0.1785888454312641, 0.391321273911624, 0 };
Point ( IP + 249 ) = {-0.181516373916365, 0.3772591073329614, 0 };
Point ( IP + 250 ) = {-0.1864469385361055, 0.376392753754609, 0 };
Point ( IP + 251 ) = {-0.1850119079785751, 0.3737271409927819, 0 };
Point ( IP + 252 ) = {-0.1979079122095913, 0.3616547602462153, 0 };
Point ( IP + 253 ) = {-0.1994663030774003, 0.3592611751290642, 0 };
Point ( IP + 254 ) = {-0.1908036184579554, 0.3574823138894291, 0 };
Point ( IP + 255 ) = {-0.1829886586423732, 0.3635377812764397, 0 };
Point ( IP + 256 ) = {-0.1712419476438468, 0.362416564820041, 0 };
Point ( IP + 257 ) = {-0.1674181319915225, 0.3557310521598319, 0 };
Point ( IP + 258 ) = {-0.1635646484540257, 0.3575675753760881, 0 };
Point ( IP + 259 ) = {-0.1642379924446918, 0.3491139945403526, 0 };
Point ( IP + 260 ) = {-0.1597984936893361, 0.3534140685291183, 0 };
Point ( IP + 261 ) = {-0.1575348189770693, 0.3510364379148342, 0 };
Point ( IP + 262 ) = {-0.1607015873798403, 0.3484829273650537, 0 };
Point ( IP + 263 ) = {-0.1645543580932705, 0.3421738025628597, 0 };
Point ( IP + 264 ) = {-0.1598782182916215, 0.3367533016094852, 0 };
Point ( IP + 265 ) = {-0.1502166462109939, 0.3401319783697475, 0 };
Point ( IP + 266 ) = {-0.1402940859411162, 0.350478828845301, 0 };
Point ( IP + 267 ) = {-0.132674405246541, 0.3626724310823315, 0 };
Point ( IP + 268 ) = {-0.1304762326278433, 0.358270248375405, 0 };
Point ( IP + 269 ) = {-0.1426074947764609, 0.3422000985963132, 0 };
Point ( IP + 270 ) = {-0.1443284213867723, 0.3312477496799534, 0 };
Point ( IP + 271 ) = {-0.1812055380445637, 0.3126591904684483, 0 };
Point ( IP + 272 ) = {-0.1826917729069089, 0.3003574053012673, 0 };
Point ( IP + 273 ) = {-0.1908164121302366, 0.29336453625572, 0 };
Point ( IP + 274 ) = {-0.1935888119911804, 0.2837111008945521, 0 };
Point ( IP + 275 ) = {-0.1888570919250635, 0.2826532195929646, 0 };
Point ( IP + 276 ) = {-0.1919484193072437, 0.2806227275050009, 0 };
Point ( IP + 277 ) = {-0.1904581281957074, 0.2798917481619413, 0 };
Point ( IP + 278 ) = {-0.1870715107750185, 0.2793831347941117, 0 };
Point ( IP + 279 ) = {-0.1862409746007682, 0.274054418765253, 0 };
Point ( IP + 280 ) = {-0.1805399616742028, 0.2725940962650205, 0 };
Point ( IP + 281 ) = {-0.1766712355587226, 0.2733800643421931, 0 };
Point ( IP + 282 ) = {-0.1701290506126352, 0.2741235248884201, 0 };
Point ( IP + 283 ) = {-0.1723519911014612, 0.268818571913542, 0 };
Point ( IP + 284 ) = {-0.1674726879299673, 0.2699920824930116, 0 };
Point ( IP + 285 ) = {-0.1677016842103263, 0.2677893762004748, 0 };
Point ( IP + 286 ) = {-0.1633720359585382, 0.2716106006972061, 0 };
Point ( IP + 287 ) = {-0.1614940539189215, 0.2690734388334137, 0 };
Point ( IP + 288 ) = {-0.1602863252795637, 0.268846954062045, 0 };
Point ( IP + 289 ) = {-0.1596523004006552, 0.2701282381460642, 0 };
Point ( IP + 290 ) = {-0.1571932334986137, 0.2721298489098972, 0 };
Point ( IP + 291 ) = {-0.1570864456214102, 0.2696669183151973, 0 };
Point ( IP + 292 ) = {-0.1524240735145221, 0.2674727533116405, 0 };
Point ( IP + 293 ) = {-0.1509884338698105, 0.2679066341237343, 0 };
Point ( IP + 294 ) = {-0.1448528879637903, 0.2696216460327406, 0 };
Point ( IP + 295 ) = {-0.1456955968807946, 0.2663486287783471, 0 };
Point ( IP + 296 ) = {-0.1442210227384572, 0.266517762291395, 0 };
Point ( IP + 297 ) = {-0.1427345961143927, 0.2645428224481218, 0 };
Point ( IP + 298 ) = {-0.1422792616515522, 0.2639288140474209, 0 };
Point ( IP + 299 ) = {-0.1415104821984515, 0.2591448795920375, 0 };
Point ( IP + 300 ) = {-0.1344879528216093, 0.258707755731207, 0 };
Point ( IP + 301 ) = {-0.1367302617690873, 0.2559923698124003, 0 };
Point ( IP + 302 ) = {-0.1319153732359146, 0.2553537944941351, 0 };
Point ( IP + 303 ) = {-0.1318713146993397, 0.2527835993906942, 0 };
Point ( IP + 304 ) = {-0.1300620530223875, 0.250461136758114, 0 };
Point ( IP + 305 ) = {-0.1278223028145758, 0.2492768669200423, 0 };
Point ( IP + 306 ) = {-0.1250742435938977, 0.2469438487372214, 0 };
Point ( IP + 307 ) = {-0.1235263417103429, 0.2462206586997492, 0 };
Point ( IP + 308 ) = {-0.11441390199061, 0.2420353733516784, 0 };
Point ( IP + 309 ) = {-0.114916479225194, 0.2395007645170195, 0 };
Point ( IP + 310 ) = {-0.1124010377116482, 0.2393895337284575, 0 };
Point ( IP + 311 ) = {-0.1119462399069632, 0.2460607795334156, 0 };
Point ( IP + 312 ) = {-0.1156206541611101, 0.248106297857631, 0 };
Point ( IP + 313 ) = {-0.1128691024007857, 0.2505328742830065, 0 };
Point ( IP + 314 ) = {-0.1156373286387709, 0.251592521283435, 0 };
Point ( IP + 315 ) = {-0.1131080647050515, 0.2550795801959986, 0 };
Point ( IP + 316 ) = {-0.1116757385372279, 0.2553355468610188, 0 };
Point ( IP + 317 ) = {-0.1088703840316906, 0.265119474538848, 0 };
Point ( IP + 318 ) = {-0.105315801209248, 0.2607658471573533, 0 };
Point ( IP + 319 ) = {-0.1030795700385933, 0.2596667501875226, 0 };
Point ( IP + 320 ) = {-0.09439495074181012, 0.2629918979797509, 0 };
Point ( IP + 321 ) = {-0.09535484664373402, 0.2598158221523475, 0 };
Point ( IP + 322 ) = {-0.09753920507999077, 0.2615218802483156, 0 };
Point ( IP + 323 ) = {-0.09723277065045248, 0.256479741510939, 0 };
Point ( IP + 324 ) = {-0.09489146792030263, 0.2573690418414792, 0 };
Point ( IP + 325 ) = {-0.09299254011389033, 0.2516276713358341, 0 };
Point ( IP + 326 ) = {-0.09309103907053717, 0.2505458665861841, 0 };
Point ( IP + 327 ) = {-0.09033206030826177, 0.2416565666525151, 0 };
Point ( IP + 328 ) = {-0.08952998552210116, 0.2446180127362336, 0 };
Point ( IP + 329 ) = {-0.08109739110639837, 0.2440678162658225, 0 };
Point ( IP + 330 ) = {-0.08001127132435894, 0.2398877101342557, 0 };
Point ( IP + 331 ) = {-0.07712841208651899, 0.2412495610253503, 0 };
Point ( IP + 332 ) = {-0.06874646635200722, 0.2350146396266037, 0 };
Point ( IP + 333 ) = {-0.06623069066561228, 0.239342304679534, 0 };
Point ( IP + 334 ) = {-0.0530982312850562, 0.2380921506293779, 0 };
Point ( IP + 335 ) = {-0.05052705577470794, 0.241744624458676, 0 };
Point ( IP + 336 ) = {-0.05497323861894628, 0.2476307536766084, 0 };
Point ( IP + 337 ) = {-0.05318026729479803, 0.2551484337975035, 0 };
Point ( IP + 338 ) = {-0.05625498437284652, 0.2539479178643139, 0 };
Point ( IP + 339 ) = {-0.05929338540522569, 0.2608871467769792, 0 };
Point ( IP + 340 ) = {-0.05541177665714792, 0.2748269151475676, 0 };
Point ( IP + 341 ) = {-0.06444920017270887, 0.2792046202761183, 0 };
Point ( IP + 342 ) = {-0.07040487959350693, 0.2938315943681095, 0 };
Point ( IP + 343 ) = {-0.06696490990289017, 0.3053757192096793, 0 };
Point ( IP + 344 ) = {-0.05666808267379703, 0.3137338610051502, 0 };
Point ( IP + 345 ) = {-0.06150816337613695, 0.317377502068059, 0 };
Point ( IP + 346 ) = {-0.06874474734956726, 0.3350756035127455, 0 };
Point ( IP + 347 ) = {-0.06587093223308312, 0.340326293195524, 0 };
Point ( IP + 348 ) = {-0.06447239752838251, 0.3415808476738469, 0 };
Point ( IP + 349 ) = {-0.06273425572882012, 0.3471951094178088, 0 };
Point ( IP + 350 ) = {-0.05722884985532728, 0.3467733554035393, 0 };
Point ( IP + 351 ) = {-0.05690277547856674, 0.3425559895503674, 0 };
Point ( IP + 352 ) = {-0.04472577510158716, 0.3321426119494321, 0 };
Point ( IP + 353 ) = {-0.04190733615487168, 0.3110367245478009, 0 };
Point ( IP + 354 ) = {-0.0261478729859883, 0.311947126429964, 0 };
Point ( IP + 355 ) = {0.004109189801122833, 0.2931193776792668, 0 };
Point ( IP + 356 ) = {0.0124086167834046, 0.2926222479919855, 0 };
Point ( IP + 357 ) = {0.0155053534956809, 0.279367525944797, 0 };
Point ( IP + 358 ) = {0.0204637275392167, 0.2785575785331276, 0 };
Point ( IP + 359 ) = {0.02397209954074218, 0.2757266373122922, 0 };
Point ( IP + 360 ) = {0.02182242231272973, 0.26222563331306, 0 };
Point ( IP + 361 ) = {0.01432471849826446, 0.2513792219519496, 0 };
Point ( IP + 362 ) = {0.01586207963970038, 0.2492587295016419, 0 };
Point ( IP + 363 ) = {0.007880540253593811, 0.2439040427779909, 0 };
Point ( IP + 364 ) = {0.00585753947632187, 0.242034210697399, 0 };
Point ( IP + 365 ) = {0.002620462003503642, 0.2386047805547269, 0 };
Point ( IP + 366 ) = {0.00700651657317408, 0.2336613062568514, 0 };
Point ( IP + 367 ) = {0.009063658863546835, 0.2330296885696415, 0 };
Point ( IP + 368 ) = {0.01595077731501486, 0.2310752285363216, 0 };
Point ( IP + 369 ) = {0.01520055375638754, 0.2283931511789907, 0 };
Point ( IP + 370 ) = {0.002678326109504582, 0.2359563363548302, 0 };
Point ( IP + 371 ) = {-7.895510497087684e-05, 0.2293780603983965, 0 };
Point ( IP + 372 ) = {-0.007557444926319957, 0.2294072430904826, 0 };
LoopStart3 = IP + 132;
LoopEnd3 = IP + 372;
BSpline ( IL + 3 ) = { IP + 132 : IP + 372 };
Point ( IP + 373 ) = {0.2032654613355719, 0.5872147477679497, 0 };
Point ( IP + 374 ) = {0.2088389524788389, 0.5930422749367764, 0 };
Point ( IP + 375 ) = {0.1970716594108, 0.6049361288380299, 0 };
Point ( IP + 376 ) = {0.1981604804603343, 0.6100352632267193, 0 };
Point ( IP + 377 ) = {0.1825603842942057, 0.6377792298663971, 0 };
Point ( IP + 378 ) = {0.1785382239434446, 0.6575683030062878, 0 };
Point ( IP + 379 ) = {0.1849263768354013, 0.6650047870715688, 0 };
Point ( IP + 380 ) = {0.1821537747818943, 0.668280396632414, 0 };
Point ( IP + 381 ) = {0.1879824458540063, 0.6689804868197299, 0 };
Point ( IP + 382 ) = {0.18723669998487, 0.6742713893312685, 0 };
Point ( IP + 383 ) = {0.1687582897052823, 0.7023932668710792, 0 };
Point ( IP + 384 ) = {0.1505460305443756, 0.7113065963744126, 0 };
Point ( IP + 385 ) = {0.1414104790835236, 0.7226629702593685, 0 };
Point ( IP + 386 ) = {0.08668986984791219, 0.7534518077967913, 0 };
Point ( IP + 387 ) = {0.05660743062596257, 0.749506075466096, 0 };
LoopStart4 = IP + 373;
LoopEnd4 = IP + 387;
BSpline ( IL + 4 ) = { IP + 373 : IP + 387 };
Point ( IP + 388 ) = {-0.1904937620236299, 0.1885045374392622, 0 };
Point ( IP + 389 ) = {-0.1900100797550656, 0.1842185160658036, 0 };
Point ( IP + 390 ) = {-0.1950322381849752, 0.1827579937920897, 0 };
Point ( IP + 391 ) = {-0.1926350647301394, 0.1788299383146711, 0 };
Point ( IP + 392 ) = {-0.1887755746464783, 0.179324402156412, 0 };
Point ( IP + 393 ) = {-0.189667146673736, 0.1750456843582849, 0 };
Point ( IP + 394 ) = {-0.1896654914888208, 0.1746408653054952, 0 };
Point ( IP + 395 ) = {-0.1861529345558718, 0.1751208107896981, 0 };
Point ( IP + 396 ) = {-0.1876113614923096, 0.1713380679287506, 0 };
Point ( IP + 397 ) = {-0.1866857832729673, 0.1694697223842073, 0 };
Point ( IP + 398 ) = {-0.1843455275340716, 0.1711494441999634, 0 };
Point ( IP + 399 ) = {-0.1849694747853397, 0.1671962819049798, 0 };
Point ( IP + 400 ) = {-0.1822590026620087, 0.1649583129443407, 0 };
Point ( IP + 401 ) = {-0.1768488935816481, 0.1658154888117913, 0 };
Point ( IP + 402 ) = {-0.1802663560987156, 0.1610732744723098, 0 };
Point ( IP + 403 ) = {-0.1799575039178062, 0.158156825393205, 0 };
Point ( IP + 404 ) = {-0.1787639341031765, 0.1561660843712193, 0 };
Point ( IP + 405 ) = {-0.1761899736899243, 0.1564335133732687, 0 };
Point ( IP + 406 ) = {-0.1778479178199239, 0.1532210338275675, 0 };
Point ( IP + 407 ) = {-0.1777322765538998, 0.151847035218849, 0 };
Point ( IP + 408 ) = {-0.1745845703880927, 0.1495620674366679, 0 };
Point ( IP + 409 ) = {-0.1735530399498638, 0.1474223829048926, 0 };
LoopStart5 = IP + 388;
LoopEnd5 = IP + 409;
BSpline ( IL + 5 ) = { IP + 388 : IP + 409 };
Point ( IP + 410 ) = {-0.1474721243515293, 0.1735710050929891, 0 };
Point ( IP + 411 ) = {-0.1420802522399096, 0.1747670310078032, 0 };
Point ( IP + 412 ) = {-0.1452012973859249, 0.1743117511982697, 0 };
Point ( IP + 413 ) = {-0.1419433552330631, 0.1801027733372199, 0 };
Point ( IP + 414 ) = {-0.1432042227784669, 0.1807116943340629, 0 };
Point ( IP + 415 ) = {-0.1460334508305151, 0.1797425470968274, 0 };
Point ( IP + 416 ) = {-0.1454500769477697, 0.1832004873255481, 0 };
Point ( IP + 417 ) = {-0.147808057977487, 0.1841161928783165, 0 };
Point ( IP + 418 ) = {-0.1488098416166868, 0.1844829937414351, 0 };
Point ( IP + 419 ) = {-0.1528621506473152, 0.1825245333968653, 0 };
Point ( IP + 420 ) = {-0.1544928698359094, 0.1865066524235718, 0 };
Point ( IP + 421 ) = {-0.1563267060199528, 0.1884138659930389, 0 };
Point ( IP + 422 ) = {-0.1610535824216198, 0.1871047725622341, 0 };
Point ( IP + 423 ) = {-0.1614407997993698, 0.190465141947511, 0 };
Point ( IP + 424 ) = {-0.1631135626227337, 0.1909643818940133, 0 };
Point ( IP + 425 ) = {-0.1647848941777463, 0.1908435874012333, 0 };
Point ( IP + 426 ) = {-0.1655073028376154, 0.1922336650745047, 0 };
Point ( IP + 427 ) = {-0.167019141537214, 0.1927387066068485, 0 };
Point ( IP + 428 ) = {-0.1713345369666577, 0.1897535404342954, 0 };
Point ( IP + 429 ) = {-0.1754283682377098, 0.1925122035244131, 0 };
Point ( IP + 430 ) = {-0.1805750885307973, 0.1885382203011295, 0 };
Point ( IP + 431 ) = {-0.1825029997617237, 0.1889157100288982, 0 };
Point ( IP + 432 ) = {-0.1837327867351606, 0.1851174224424924, 0 };
Point ( IP + 433 ) = {-0.1861915038741026, 0.1875402916799479, 0 };
Point ( IP + 434 ) = {-0.1880348634633297, 0.1891927118688678, 0 };
Point ( IP + 435 ) = {-0.1904937620236299, 0.1885045374392622, 0 };
LoopStart6 = IP + 410;
LoopEnd6 = IP + 435;
BSpline ( IL + 6 ) = { IP + 410 : IP + 435 };
Point ( IP + 436 ) = {-0.101584145543537, 0.2281524994371488, 0 };
Point ( IP + 437 ) = {-0.1032940013838266, 0.2204843167831121, 0 };
Point ( IP + 438 ) = {-0.1023324931191494, 0.214706044875567, 0 };
Point ( IP + 439 ) = {-0.09907352922267433, 0.2087669455358439, 0 };
Point ( IP + 440 ) = {-0.0939633337075257, 0.2078294775352638, 0 };
Point ( IP + 441 ) = {-0.09575296724079503, 0.205719559810861, 0 };
Point ( IP + 442 ) = {-0.09184872921619786, 0.2032970218035637, 0 };
Point ( IP + 443 ) = {-0.09049366990651544, 0.2062910799528815, 0 };
LoopStart7 = IP + 436;
LoopEnd7 = IP + 443;
BSpline ( IL + 7 ) = { IP + 436 : IP + 443 };
Point ( IP + 444 ) = {-0.04706734563618226, 0.2220086263961196, 0 };
Point ( IP + 445 ) = {-0.06090565750647462, 0.2190330513079509, 0 };
Point ( IP + 446 ) = {-0.06445771256801248, 0.2186835866135112, 0 };
Point ( IP + 447 ) = {-0.06931194563628089, 0.2217105910369905, 0 };
Point ( IP + 448 ) = {-0.07245481340573652, 0.22460436156329, 0 };
Point ( IP + 449 ) = {-0.07523001015436627, 0.2266923276961393, 0 };
Point ( IP + 450 ) = {-0.1015917403090588, 0.2281615192337103, 0 };
Point ( IP + 451 ) = {-0.101584145543537, 0.2281524994371488, 0 };
LoopStart8 = IP + 444;
LoopEnd8 = IP + 451;
BSpline ( IL + 8 ) = { IP + 444 : IP + 451 };
Point ( IP + 452 ) = {-0.3562025356099869, -0, 0 };
Point ( IP + 453 ) = {-0.3525092837731489, -0.008579398970911159, 0 };
Point ( IP + 454 ) = {-0.3501561165138195, -0.008720360012702124, 0 };
Point ( IP + 455 ) = {-0.3482806745614764, -0.005669006769137354, 0 };
Point ( IP + 456 ) = {-0.3395038428279294, -0.01046652658716049, 0 };
Point ( IP + 457 ) = {-0.3351520799456289, -0.007615093077723999, 0 };
Point ( IP + 458 ) = {-0.3355947815485665, -0.0001656308734049569, 0 };
Point ( IP + 459 ) = {-0.335711881088901, 4.410864250157981e-05, 0 };
Point ( IP + 460 ) = {-0.32932756629706, -0, 0 };
Point ( IP + 461 ) = {-0.3282895362369209, 0.00128457838512361, 0 };
Point ( IP + 462 ) = {-0.3272005538500138, -1.599003554129017e-07, 0 };
Point ( IP + 463 ) = {-0.3237625799935145, 0.00043808952132712, 0 };
Point ( IP + 464 ) = {-0.3192535123530386, 0.006757401129416003, 0 };
Point ( IP + 465 ) = {-0.3063209708212099, 0.01143334092611117, 0 };
Point ( IP + 466 ) = {-0.3028688123426939, 0.01373126825310736, 0 };
Point ( IP + 467 ) = {-0.3000368454572686, 0.01330582734381897, 0 };
Point ( IP + 468 ) = {-0.2902779695841079, 0.009219555520102188, 0 };
Point ( IP + 469 ) = {-0.2907296666827555, 0.0225662422498747, 0 };
Point ( IP + 470 ) = {-0.280288892627729, 0.01479955484473455, 0 };
Point ( IP + 471 ) = {-0.2797544126169691, 0.02449187590909475, 0 };
Point ( IP + 472 ) = {-0.2873245339840647, 0.02550417465270927, 0 };
Point ( IP + 473 ) = {-0.2866331070963568, 0.02918701345908756, 0 };
Point ( IP + 474 ) = {-0.2938817000396824, 0.02771545801444068, 0 };
Point ( IP + 475 ) = {-0.2970535697532583, 0.03242335577373097, 0 };
Point ( IP + 476 ) = {-0.2978053742003893, 0.02607641885089812, 0 };
Point ( IP + 477 ) = {-0.3107964606960408, 0.03160167412639914, 0 };
Point ( IP + 478 ) = {-0.305825927980877, 0.02845615584711101, 0 };
Point ( IP + 479 ) = {-0.3027116980909455, 0.02516271207400521, 0 };
Point ( IP + 480 ) = {-0.3057384837935649, 0.02367306273774841, 0 };
Point ( IP + 481 ) = {-0.3051675611427995, 0.02607728648584759, 0 };
Point ( IP + 482 ) = {-0.3154146604214057, 0.02840434819250573, 0 };
Point ( IP + 483 ) = {-0.3176954663145424, 0.02699439181476532, 0 };
Point ( IP + 484 ) = {-0.3154218885519651, 0.02680120728602047, 0 };
Point ( IP + 485 ) = {-0.3150193504746083, 0.01679923170035707, 0 };
Point ( IP + 486 ) = {-0.3193758610950775, 0.02033143341404751, 0 };
Point ( IP + 487 ) = {-0.3238388452033211, 0.0178315335995262, 0 };
Point ( IP + 488 ) = {-0.328822639725472, 0.01785188926666276, 0 };
Point ( IP + 489 ) = {-0.3307919278678257, 0.01548901005839525, 0 };
Point ( IP + 490 ) = {-0.3316421700312033, 0.02434943098739635, 0 };
Point ( IP + 491 ) = {-0.3354204114220417, 0.02798427205354811, 0 };
Point ( IP + 492 ) = {-0.3345023307537194, 0.02373309339538504, 0 };
Point ( IP + 493 ) = {-0.3381352527573972, 0.02327409643272777, 0 };
Point ( IP + 494 ) = {-0.3441973466348079, 0.0320564554166111, 0 };
Point ( IP + 495 ) = {-0.3513266047676068, 0.02599042008297726, 0 };
Point ( IP + 496 ) = {-0.3615542823688694, 0.03618918128258406, 0 };
Point ( IP + 497 ) = {-0.3610791973868043, 0.02299153423798984, 0 };
Point ( IP + 498 ) = {-0.3565375680467392, 0.02166120541314171, 0 };
Point ( IP + 499 ) = {-0.3562030751174493, 3.108458241152015e-05, 0 };
LoopStart9 = IP + 452;
LoopEnd9 = IP + 499;
BSpline ( IL + 9 ) = { IP + 452 : IP + 499, IP + 452 };
Line Loop ( ILL + 0 ) = { IL + 9 };Point ( IP + 500 ) = {-0.2248076600996687, 0.3234745774580149, 0 };
Point ( IP + 501 ) = {-0.2258763678327181, 0.311869127482137, 0 };
Point ( IP + 502 ) = {-0.2300688845805526, 0.3142795624806694, 0 };
Point ( IP + 503 ) = {-0.2314741417300313, 0.3209517362349275, 0 };
Point ( IP + 504 ) = {-0.2357622012183579, 0.3200730237412952, 0 };
Point ( IP + 505 ) = {-0.238438469397335, 0.3182815000033095, 0 };
Point ( IP + 506 ) = {-0.2359296541418106, 0.3088254476914187, 0 };
Point ( IP + 507 ) = {-0.2332688992441322, 0.3072499000455887, 0 };
Point ( IP + 508 ) = {-0.230395452420683, 0.3048680493605129, 0 };
Point ( IP + 509 ) = {-0.230873018700452, 0.3126900026107238, 0 };
Point ( IP + 510 ) = {-0.226789650997722, 0.3114935345112909, 0 };
Point ( IP + 511 ) = {-0.2274050139455811, 0.3085815130156636, 0 };
Point ( IP + 512 ) = {-0.2244572699531487, 0.3085241619109598, 0 };
Point ( IP + 513 ) = {-0.2277118543293406, 0.3022155410729478, 0 };
Point ( IP + 514 ) = {-0.2222990878642116, 0.3082111137971449, 0 };
Point ( IP + 515 ) = {-0.2206965064201036, 0.2982992753459785, 0 };
Point ( IP + 516 ) = {-0.2156455760584811, 0.3023059676252766, 0 };
Point ( IP + 517 ) = {-0.2139363163961359, 0.2996973923707752, 0 };
Point ( IP + 518 ) = {-0.2105061723811552, 0.30242388090263, 0 };
Point ( IP + 519 ) = {-0.2064698305122027, 0.3001310965705123, 0 };
Point ( IP + 520 ) = {-0.2028365436767833, 0.303098812743095, 0 };
Point ( IP + 521 ) = {-0.201826368471146, 0.3010304334910535, 0 };
Point ( IP + 522 ) = {-0.1988816030170583, 0.291886816361098, 0 };
Point ( IP + 523 ) = {-0.1956000589125902, 0.2909108220548322, 0 };
Point ( IP + 524 ) = {-0.198534379281784, 0.2888069163301815, 0 };
Point ( IP + 525 ) = {-0.1950555100244327, 0.2881138404653025, 0 };
Point ( IP + 526 ) = {-0.1923074671323688, 0.3008284271481256, 0 };
Point ( IP + 527 ) = {-0.1973371910357363, 0.3122225836824012, 0 };
Point ( IP + 528 ) = {-0.1947580022073984, 0.3145676033595817, 0 };
Point ( IP + 529 ) = {-0.1951893173198685, 0.317369480396297, 0 };
Point ( IP + 530 ) = {-0.1937663238917499, 0.3259554655824464, 0 };
Point ( IP + 531 ) = {-0.1958606875170508, 0.3313439993258382, 0 };
Point ( IP + 532 ) = {-0.1989777589759867, 0.3333596929927755, 0 };
Point ( IP + 533 ) = {-0.2027208050902954, 0.3284548192443756, 0 };
Point ( IP + 534 ) = {-0.2124647378351321, 0.3253799924796231, 0 };
Point ( IP + 535 ) = {-0.2169193132841525, 0.3231902852682489, 0 };
Point ( IP + 536 ) = {-0.2205852963529651, 0.3269220784692752, 0 };
Point ( IP + 537 ) = {-0.2248102321049422, 0.3234796155609923, 0 };
LoopStart10 = IP + 500;
LoopEnd10 = IP + 537;
BSpline ( IL + 10 ) = { IP + 500 : IP + 537, IP + 500 };
Line Loop ( ILL + 1 ) = { IL + 10 };Point ( IP + 538 ) = {-0.1815116206960564, 0.6774105906018518, 0 };
Point ( IP + 539 ) = {-0.1904513493256183, 0.6704915935688802, 0 };
Point ( IP + 540 ) = {-0.1705569620986767, 0.6700172634232394, 0 };
Point ( IP + 541 ) = {-0.1693807052716436, 0.6645083367713934, 0 };
Point ( IP + 542 ) = {-0.1549913954819152, 0.6656425978079911, 0 };
Point ( IP + 543 ) = {-0.1175150564634077, 0.6525766477852635, 0 };
Point ( IP + 544 ) = {-0.101526629870254, 0.6514365935145868, 0 };
Point ( IP + 545 ) = {-0.06926852702698819, 0.6618268710797102, 0 };
Point ( IP + 546 ) = {-0.06723102741322798, 0.6711020637968481, 0 };
Point ( IP + 547 ) = {-0.05949366539537802, 0.6735276589636409, 0 };
Point ( IP + 548 ) = {-0.07020885392558138, 0.6720417148845567, 0 };
Point ( IP + 549 ) = {-0.08391388234180158, 0.6603100011196434, 0 };
Point ( IP + 550 ) = {-0.09425414987666607, 0.6592418242536567, 0 };
Point ( IP + 551 ) = {-0.09707484300440497, 0.6612176820143983, 0 };
Point ( IP + 552 ) = {-0.09132946750081088, 0.663246304465778, 0 };
Point ( IP + 553 ) = {-0.09582202916535504, 0.6654409940822188, 0 };
Point ( IP + 554 ) = {-0.1324810324090963, 0.6660794374962685, 0 };
Point ( IP + 555 ) = {-0.1418494336841902, 0.6756559577768769, 0 };
Point ( IP + 556 ) = {-0.152739165925415, 0.6745116822473994, 0 };
Point ( IP + 557 ) = {-0.1551050109803487, 0.6780653947876837, 0 };
Point ( IP + 558 ) = {-0.1491541211465258, 0.6862417629462781, 0 };
Point ( IP + 559 ) = {-0.1815099772922401, 0.6774110309484407, 0 };
LoopStart11 = IP + 538;
LoopEnd11 = IP + 559;
BSpline ( IL + 11 ) = { IP + 538 : IP + 559, IP + 538 };
Line Loop ( ILL + 2 ) = { IL + 11 };Point ( IP + 560 ) = {-0.2033899903046396, 0.09075019741701804, 0 };
Point ( IP + 561 ) = {-0.2117014889767436, 0.08277706542246503, 0 };
Point ( IP + 562 ) = {-0.2146677925432892, 0.08981631627048581, 0 };
Point ( IP + 563 ) = {-0.2159612255130667, 0.08313035897067113, 0 };
Point ( IP + 564 ) = {-0.2239509301730023, 0.0759486955476463, 0 };
Point ( IP + 565 ) = {-0.222598834939979, 0.0680522262906727, 0 };
Point ( IP + 566 ) = {-0.2225943176226265, 0.068053912415591, 0 };
LoopStart12 = IP + 560;
LoopEnd12 = IP + 566;
BSpline ( IL + 12 ) = { IP + 560 : IP + 566 };
Point ( IP + 567 ) = {-0.3423428560345397, 0.048113150741495, 0 };
Point ( IP + 568 ) = {-0.3399039019403339, 0.03761131015925898, 0 };
Point ( IP + 569 ) = {-0.3227674672229352, 0.03619942063300778, 0 };
Point ( IP + 570 ) = {-0.3188177964849426, 0.03031057890534246, 0 };
Point ( IP + 571 ) = {-0.3113168334105619, 0.03349947540071856, 0 };
Point ( IP + 572 ) = {-0.3107479241829192, 0.03772860822220259, 0 };
Point ( IP + 573 ) = {-0.3090575579168886, 0.04007603671615827, 0 };
Point ( IP + 574 ) = {-0.3128679576132399, 0.041912860761929, 0 };
Point ( IP + 575 ) = {-0.3100939837566634, 0.04349839349409849, 0 };
Point ( IP + 576 ) = {-0.3144328399452412, 0.04873812430200086, 0 };
Point ( IP + 577 ) = {-0.3154766941632346, 0.0449880872911452, 0 };
Point ( IP + 578 ) = {-0.3193211071698559, 0.04782779853843371, 0 };
Point ( IP + 579 ) = {-0.317584700102551, 0.05665178717172556, 0 };
Point ( IP + 580 ) = {-0.3223121337767284, 0.05423072325836891, 0 };
Point ( IP + 581 ) = {-0.3254289012911142, 0.05846090200830741, 0 };
Point ( IP + 582 ) = {-0.3285899262966035, 0.05133340964987914, 0 };
Point ( IP + 583 ) = {-0.3338069827915598, 0.05850415209241536, 0 };
Point ( IP + 584 ) = {-0.3364515442442287, 0.06152838116636725, 0 };
Point ( IP + 585 ) = {-0.3378386397035419, 0.05810710915841177, 0 };
Point ( IP + 586 ) = {-0.3401710732823257, 0.06245898615131819, 0 };
Point ( IP + 587 ) = {-0.3426595481196726, 0.06143313710891692, 0 };
Point ( IP + 588 ) = {-0.3446805112768865, 0.05938196493565505, 0 };
Point ( IP + 589 ) = {-0.3423495149184435, 0.04812424390132329, 0 };
LoopStart13 = IP + 567;
LoopEnd13 = IP + 589;
BSpline ( IL + 13 ) = { IP + 567 : IP + 589, IP + 567 };
Line Loop ( ILL + 3 ) = { IL + 13 };Point ( IP + 590 ) = {-0.2347421389470354, 0.687599442924883, 0 };
Point ( IP + 591 ) = {-0.2385849843915764, 0.6802132706633593, 0 };
Point ( IP + 592 ) = {-0.2635586560016965, 0.6740813185599459, 0 };
Point ( IP + 593 ) = {-0.2653610358122584, 0.6676857678766095, 0 };
Point ( IP + 594 ) = {-0.2479273614970659, 0.6676669704688665, 0 };
Point ( IP + 595 ) = {-0.2524243649672852, 0.6628713640913214, 0 };
Point ( IP + 596 ) = {-0.2456597124441154, 0.6656810809056677, 0 };
Point ( IP + 597 ) = {-0.2413388199459415, 0.6617250750489327, 0 };
Point ( IP + 598 ) = {-0.2069667488490598, 0.6695678451700312, 0 };
Point ( IP + 599 ) = {-0.2005185620732022, 0.675120403213095, 0 };
Point ( IP + 600 ) = {-0.2103297870791973, 0.6753142815294685, 0 };
Point ( IP + 601 ) = {-0.2105201403969862, 0.6810062546989587, 0 };
Point ( IP + 602 ) = {-0.1951962194165974, 0.6905396830334917, 0 };
Point ( IP + 603 ) = {-0.1928565643555396, 0.694615286709837, 0 };
Point ( IP + 604 ) = {-0.2016083808278122, 0.697726786514723, 0 };
Point ( IP + 605 ) = {-0.2229105750649839, 0.6882330443284497, 0 };
Point ( IP + 606 ) = {-0.2331251407570953, 0.6937508099204633, 0 };
Point ( IP + 607 ) = {-0.2347350627223334, 0.6876136089066121, 0 };
LoopStart14 = IP + 590;
LoopEnd14 = IP + 607;
BSpline ( IL + 14 ) = { IP + 590 : IP + 607, IP + 590 };
Line Loop ( ILL + 4 ) = { IL + 14 };Point ( IP + 608 ) = {-0.03692545061768917, 0.2331381197674938, 0 };
Point ( IP + 609 ) = {-0.03990658187341253, 0.2294918868671989, 0 };
Point ( IP + 610 ) = {-0.03625219970969436, 0.2268652722817226, 0 };
Point ( IP + 611 ) = {-0.03220634457500533, 0.2288074866569008, 0 };
Point ( IP + 612 ) = {-0.03211163601647969, 0.2235370924340476, 0 };
LoopStart15 = IP + 608;
LoopEnd15 = IP + 612;
BSpline ( IL + 15 ) = { IP + 608 : IP + 612 };
Point ( IP + 613 ) = {-0.01533128219159278, 0.2295411404488284, 0 };
Point ( IP + 614 ) = {-0.0116116545490034, 0.2344863905613095, 0 };
Point ( IP + 615 ) = {-0.01758998953774615, 0.2328417336406219, 0 };
Point ( IP + 616 ) = {-0.01996087155795802, 0.2382590368290745, 0 };
Point ( IP + 617 ) = {-0.02791604799317488, 0.2274956327327462, 0 };
Point ( IP + 618 ) = {-0.03056973262994408, 0.2320158931563363, 0 };
Point ( IP + 619 ) = {-0.03689524702254712, 0.2331610436154283, 0 };
Point ( IP + 620 ) = {-0.03692545061768917, 0.2331381197674938, 0 };
LoopStart16 = IP + 613;
LoopEnd16 = IP + 620;
BSpline ( IL + 16 ) = { IP + 613 : IP + 620 };
Point ( IP + 621 ) = {-0.4718233006776055, -0.07010386462033436, 0 };
Point ( IP + 622 ) = {-0.4671108824937518, -0.07929523331145195, 0 };
Point ( IP + 623 ) = {-0.4539402481727883, -0.07867044173204331, 0 };
Point ( IP + 624 ) = {-0.447127122364821, -0.07266552456903726, 0 };
Point ( IP + 625 ) = {-0.4517376971315719, -0.06490504192643815, 0 };
Point ( IP + 626 ) = {-0.4718491630963974, -0.07010794295773187, 0 };
LoopStart17 = IP + 621;
LoopEnd17 = IP + 626;
BSpline ( IL + 17 ) = { IP + 621 : IP + 626, IP + 621 };
Line Loop ( ILL + 5 ) = { IL + 17 };Point ( IP + 627 ) = {-0.1639056135694391, 0.7099532108357675, 0 };
Point ( IP + 628 ) = {-0.1737600107401422, 0.7066032132812088, 0 };
Point ( IP + 629 ) = {-0.1634472518681528, 0.7022817149824959, 0 };
Point ( IP + 630 ) = {-0.145808267429264, 0.7069063050522789, 0 };
Point ( IP + 631 ) = {-0.1546941276830336, 0.7118803868060931, 0 };
Point ( IP + 632 ) = {-0.1638992775035031, 0.7099493400371791, 0 };
LoopStart18 = IP + 627;
LoopEnd18 = IP + 632;
BSpline ( IL + 18 ) = { IP + 627 : IP + 632, IP + 627 };
Line Loop ( ILL + 6 ) = { IL + 18 };Point ( IP + 633 ) = {-0.2029594721682039, 0.3493684559834621, 0 };
Point ( IP + 634 ) = {-0.1985107284320206, 0.3479052478440364, 0 };
Point ( IP + 635 ) = {-0.1980052300023079, 0.3487640109981399, 0 };
Point ( IP + 636 ) = {-0.1942938594311764, 0.3422040614807331, 0 };
Point ( IP + 637 ) = {-0.192253347239416, 0.3548908102335007, 0 };
Point ( IP + 638 ) = {-0.196277120202362, 0.3583965278391666, 0 };
Point ( IP + 639 ) = {-0.2029812000466483, 0.3494050714693288, 0 };
LoopStart19 = IP + 633;
LoopEnd19 = IP + 639;
BSpline ( IL + 19 ) = { IP + 633 : IP + 639, IP + 633 };
Line Loop ( ILL + 7 ) = { IL + 19 };Point ( IP + 640 ) = {-0.2956357674995079, 0.6640088054852908, 0 };
Point ( IP + 641 ) = {-0.297791903804874, 0.6570373491714152, 0 };
Point ( IP + 642 ) = {-0.2788445653320489, 0.6656890489455924, 0 };
Point ( IP + 643 ) = {-0.2819492423794896, 0.6706224217205193, 0 };
Point ( IP + 644 ) = {-0.2956331914432401, 0.6640160256689297, 0 };
LoopStart20 = IP + 640;
LoopEnd20 = IP + 644;
BSpline ( IL + 20 ) = { IP + 640 : IP + 644, IP + 640 };
Line Loop ( ILL + 8 ) = { IL + 20 };Point ( IP + 645 ) = {-0.4451852813205044, -0.07051042162266934, 0 };
Point ( IP + 646 ) = {-0.4378170341893302, -0.07368751538450226, 0 };
Point ( IP + 647 ) = {-0.4287363408840913, -0.07120771446956339, 0 };
Point ( IP + 648 ) = {-0.4364877475087838, -0.06555439688039326, 0 };
Point ( IP + 649 ) = {-0.4451847454119743, -0.07051011372721812, 0 };
LoopStart21 = IP + 645;
LoopEnd21 = IP + 649;
BSpline ( IL + 21 ) = { IP + 645 : IP + 649, IP + 645 };
Line Loop ( ILL + 9 ) = { IL + 21 };Point ( IP + 650 ) = {-0.1751721241834858, 0.3294508499428163, 0 };
Point ( IP + 651 ) = {-0.1750123888767495, 0.3268531779143499, 0 };
Point ( IP + 652 ) = {-0.1684804248511384, 0.3264131992819281, 0 };
Point ( IP + 653 ) = {-0.1570743106336127, 0.3296285353112681, 0 };
Point ( IP + 654 ) = {-0.1751665571902067, 0.3294635042911408, 0 };
LoopStart22 = IP + 650;
LoopEnd22 = IP + 654;
BSpline ( IL + 22 ) = { IP + 650 : IP + 654, IP + 650 };
Line Loop ( ILL + 10 ) = { IL + 22 };Point ( IP + 655 ) = {-0.1841122651550853, 0.3596720934188665, 0 };
Point ( IP + 656 ) = {-0.1876903270332745, 0.3525866377058329, 0 };
Point ( IP + 657 ) = {-0.1752857786296635, 0.3587272030408111, 0 };
Point ( IP + 658 ) = {-0.1724213786706023, 0.3535162150587344, 0 };
Point ( IP + 659 ) = {-0.171958676840187, 0.3587050437998528, 0 };
Point ( IP + 660 ) = {-0.1840801616020542, 0.3596549530691365, 0 };
LoopStart23 = IP + 655;
LoopEnd23 = IP + 660;
BSpline ( IL + 23 ) = { IP + 655 : IP + 660, IP + 655 };
Line Loop ( ILL + 11 ) = { IL + 23 };Point ( IP + 661 ) = {-0.02941521290741287, 0.2396233842000868, 0 };
Point ( IP + 662 ) = {-0.02581515821164757, 0.2436589919208027, 0 };
Point ( IP + 663 ) = {-0.02712231943495573, 0.2465772508599575, 0 };
Point ( IP + 664 ) = {-0.03407945597816029, 0.238448591395715, 0 };
Point ( IP + 665 ) = {-0.02942104329838891, 0.2396151688945192, 0 };
LoopStart24 = IP + 661;
LoopEnd24 = IP + 665;
BSpline ( IL + 24 ) = { IP + 661 : IP + 665, IP + 661 };
Line Loop ( ILL + 12 ) = { IL + 24 };Point ( IP + 666 ) = {-0.4729254778257622, -0.02478497405921934, 0 };
Point ( IP + 667 ) = {-0.4684568362323846, -0.02847765910542116, 0 };
Point ( IP + 668 ) = {-0.4659583471330196, -0.026173029887405, 0 };
Point ( IP + 669 ) = {-0.4702227935013615, -0.01927976759637534, 0 };
Point ( IP + 670 ) = {-0.4729307047204332, -0.02478179653622696, 0 };
LoopStart25 = IP + 666;
LoopEnd25 = IP + 670;
BSpline ( IL + 25 ) = { IP + 666 : IP + 670, IP + 666 };
Line Loop ( ILL + 13 ) = { IL + 25 };Point ( IP + 671 ) = {-0.1341757299173126, 0.6313389630046629, 0 };
Point ( IP + 672 ) = {-0.1359179605701458, 0.6263326227944317, 0 };
Point ( IP + 673 ) = {-0.1295465195022593, 0.6211888841827222, 0 };
Point ( IP + 674 ) = {-0.1283884568468246, 0.6290619503598218, 0 };
Point ( IP + 675 ) = {-0.1341669205870206, 0.6313411890176135, 0 };
LoopStart26 = IP + 671;
LoopEnd26 = IP + 675;
BSpline ( IL + 26 ) = { IP + 671 : IP + 675, IP + 671 };
Line Loop ( ILL + 14 ) = { IL + 26 };Point ( IP + 676 ) = {-0.04373354969580562, 0.2480252852971706, 0 };
Point ( IP + 677 ) = {-0.04622592011390294, 0.2448161655050817, 0 };
Point ( IP + 678 ) = {-0.0442995140545115, 0.2414059935040512, 0 };
Point ( IP + 679 ) = {-0.04371810729797086, 0.2479981739255957, 0 };
LoopStart27 = IP + 676;
LoopEnd27 = IP + 679;
BSpline ( IL + 27 ) = { IP + 676 : IP + 679, IP + 676 };
Line Loop ( ILL + 15 ) = { IL + 27 };Point ( IP + 680 ) = {-0.1264901776068142, 0.4411430545192715, 0 };
Point ( IP + 681 ) = {-0.1366587729516391, 0.4369693830003334, 0 };
Point ( IP + 682 ) = {-0.1385638729605889, 0.4323708931618385, 0 };
Point ( IP + 683 ) = {-0.1264932921876733, 0.4411345342242799, 0 };
LoopStart28 = IP + 680;
LoopEnd28 = IP + 683;
BSpline ( IL + 28 ) = { IP + 680 : IP + 683, IP + 680 };
Line Loop ( ILL + 16 ) = { IL + 28 };Point ( IP + 684 ) = {-0.04634873785492379, 0.3313712521668566, 0 };
Point ( IP + 685 ) = {-0.05459594258245192, 0.3332081429981481, 0 };
Point ( IP + 686 ) = {-0.05136308907955246, 0.328712002608161, 0 };
Point ( IP + 687 ) = {-0.04634304797485216, 0.3313704116801846, 0 };
LoopStart29 = IP + 684;
LoopEnd29 = IP + 687;
BSpline ( IL + 29 ) = { IP + 684 : IP + 687, IP + 684 };
Line Loop ( ILL + 17 ) = { IL + 29 };Point ( IP + 688 ) = {-0.0830317234860201, 0.6762391205819408, 0 };
Point ( IP + 689 ) = {-0.08841441041265075, 0.6741880963945411, 0 };
Point ( IP + 690 ) = {-0.08599948363843822, 0.6704824337150759, 0 };
Point ( IP + 691 ) = {-0.08232181874322865, 0.6702559619058424, 0 };
Point ( IP + 692 ) = {-0.08295267431657641, 0.6762484743313897, 0 };
LoopStart30 = IP + 688;
LoopEnd30 = IP + 692;
BSpline ( IL + 30 ) = { IP + 688 : IP + 692, IP + 688 };
Line Loop ( ILL + 18 ) = { IL + 30 };Point ( IP + 693 ) = {-0.2849791082832569, 0.03499103467706118, 0 };
Point ( IP + 694 ) = {-0.287187473344702, 0.03510122157564313, 0 };
Point ( IP + 695 ) = {-0.2854995106444556, 0.03236480691380227, 0 };
Point ( IP + 696 ) = {-0.2802064576002339, 0.03070423236673518, 0 };
Point ( IP + 697 ) = {-0.2849803374452755, 0.03498319332662321, 0 };
LoopStart31 = IP + 693;
LoopEnd31 = IP + 697;
BSpline ( IL + 31 ) = { IP + 693 : IP + 697, IP + 693 };
Line Loop ( ILL + 19 ) = { IL + 31 };Point ( IP + 698 ) = {-0.5755547192324598, 0.1725922664719215, 0 };
Point ( IP + 699 ) = {-0.5705954052766596, 0.1650535724738917, 0 };
Point ( IP + 700 ) = {-0.570798291636486, 0.1735629505595357, 0 };
Point ( IP + 701 ) = {-0.5755363983921195, 0.1726016732943529, 0 };
LoopStart32 = IP + 698;
LoopEnd32 = IP + 701;
BSpline ( IL + 32 ) = { IP + 698 : IP + 701, IP + 698 };
Line Loop ( ILL + 20 ) = { IL + 32 };Point ( IP + 702 ) = {-0.05325684118817673, 0.3020345552007749, 0 };
Point ( IP + 703 ) = {-0.05696968999003588, 0.2998381931721405, 0 };
Point ( IP + 704 ) = {-0.05712836929017656, 0.3018043523087138, 0 };
Point ( IP + 705 ) = {-0.05793386111233637, 0.2963895169626172, 0 };
Point ( IP + 706 ) = {-0.0558904554059883, 0.2944660744242735, 0 };
Point ( IP + 707 ) = {-0.05324565148231539, 0.3020472988795762, 0 };
LoopStart33 = IP + 702;
LoopEnd33 = IP + 707;
BSpline ( IL + 33 ) = { IP + 702 : IP + 707, IP + 702 };
Line Loop ( ILL + 21 ) = { IL + 33 };Point ( IP + 708 ) = {-0.291969316810722, 0.03068721176443294, 0 };
Point ( IP + 709 ) = {-0.2885090365655751, 0.03357314854057908, 0 };
Point ( IP + 710 ) = {-0.2943971569438756, 0.03102926084805504, 0 };
Point ( IP + 711 ) = {-0.2919736494867862, 0.03068380300578257, 0 };
LoopStart34 = IP + 708;
LoopEnd34 = IP + 711;
BSpline ( IL + 34 ) = { IP + 708 : IP + 711, IP + 708 };
Line Loop ( ILL + 22 ) = { IL + 34 };Point ( IP + 712 ) = {-0.5806180283888355, 0.1448091863841303, 0 };
Point ( IP + 713 ) = {-0.5746367492599752, 0.1420485756839271, 0 };
Point ( IP + 714 ) = {-0.5809742774727558, 0.1502910357009563, 0 };
Point ( IP + 715 ) = {-0.5806155302553857, 0.1448178311718951, 0 };
LoopStart35 = IP + 712;
LoopEnd35 = IP + 715;
BSpline ( IL + 35 ) = { IP + 712 : IP + 715, IP + 712 };
Line Loop ( ILL + 23 ) = { IL + 35 };Point ( IP + 716 ) = {-0.1992592974554923, 0.6577847425737202, 0 };
Point ( IP + 717 ) = {-0.1994716175366759, 0.6531579919388444, 0 };
Point ( IP + 718 ) = {-0.1927906220597088, 0.6594527285629271, 0 };
Point ( IP + 719 ) = {-0.1992534722201198, 0.6577977041048549, 0 };
LoopStart36 = IP + 716;
LoopEnd36 = IP + 719;
BSpline ( IL + 36 ) = { IP + 716 : IP + 719, IP + 716 };
Line Loop ( ILL + 24 ) = { IL + 36 };Point ( IP + 720 ) = {-0.5793862766153338, 0.1592771336652187, 0 };
Point ( IP + 721 ) = {-0.5765719098741849, 0.1618867044715797, 0 };
Point ( IP + 722 ) = {-0.5791149382889129, 0.1641866062899978, 0 };
Point ( IP + 723 ) = {-0.5793931916806143, 0.1592880948597702, 0 };
LoopStart37 = IP + 720;
LoopEnd37 = IP + 723;
BSpline ( IL + 37 ) = { IP + 720 : IP + 723, IP + 720 };
Line Loop ( ILL + 25 ) = { IL + 37 };Point ( IP + 724 ) = {-0.3584199367054334, 0.6628699794817628, 0 };
Point ( IP + 725 ) = {-0.3617555395812999, 0.6571604594132399, 0 };
Point ( IP + 726 ) = {-0.3566375200681277, 0.655777461610056, 0 };
Point ( IP + 727 ) = {-0.3540477759897975, 0.6602632725712821, 0 };
Point ( IP + 728 ) = {-0.3584248579770805, 0.662879855262642, 0 };
LoopStart38 = IP + 724;
LoopEnd38 = IP + 728;
BSpline ( IL + 38 ) = { IP + 724 : IP + 728, IP + 724 };
Line Loop ( ILL + 26 ) = { IL + 38 };Point ( IP + 729 ) = {-0.04970014968481534, 0.2338208206527692, 0 };
Point ( IP + 730 ) = {-0.05053585778054374, 0.2307248216305681, 0 };
Point ( IP + 731 ) = {-0.04691069042223533, 0.2314013541777511, 0 };
Point ( IP + 732 ) = {-0.04969127980256192, 0.2338203479969389, 0 };
LoopStart39 = IP + 729;
LoopEnd39 = IP + 732;
BSpline ( IL + 39 ) = { IP + 729 : IP + 732, IP + 729 };
Line Loop ( ILL + 27 ) = { IL + 39 };Point ( IP + 733 ) = {-0.1402724636447635, 0.6340824692094844, 0 };
Point ( IP + 734 ) = {-0.1370923391657652, 0.6345925230569385, 0 };
Point ( IP + 735 ) = {-0.13794517499763, 0.6307795533990425, 0 };
Point ( IP + 736 ) = {-0.1355516293821987, 0.633349447048528, 0 };
Point ( IP + 737 ) = {-0.1394527571440687, 0.6367857050736703, 0 };
Point ( IP + 738 ) = {-0.1402912831550003, 0.6340786487327692, 0 };
LoopStart40 = IP + 733;
LoopEnd40 = IP + 738;
BSpline ( IL + 40 ) = { IP + 733 : IP + 738, IP + 733 };
Line Loop ( ILL + 28 ) = { IL + 40 };Point ( IP + 739 ) = {-0.1362744648242096, 0.6098652500506662, 0 };
Point ( IP + 740 ) = {-0.1390267635518287, 0.6110030044167654, 0 };
Point ( IP + 741 ) = {-0.1388200350809773, 0.6023560784674015, 0 };
Point ( IP + 742 ) = {-0.1319192977099632, 0.5993812394938454, 0 };
Point ( IP + 743 ) = {-0.1377192175157524, 0.6027840035865342, 0 };
Point ( IP + 744 ) = {-0.1362530827254465, 0.609833423488247, 0 };
LoopStart41 = IP + 739;
LoopEnd41 = IP + 744;
BSpline ( IL + 41 ) = { IP + 739 : IP + 744, IP + 739 };
Line Loop ( ILL + 29 ) = { IL + 41 };Point ( IP + 745 ) = {-0.1077225162669474, 0.2310116816291722, 0 };
Point ( IP + 746 ) = {-0.1078865270393796, 0.2283136370452286, 0 };
Point ( IP + 747 ) = {-0.1049486950025033, 0.2298107088009103, 0 };
Point ( IP + 748 ) = {-0.1077156850525145, 0.2310145798352203, 0 };
LoopStart42 = IP + 745;
LoopEnd42 = IP + 748;
BSpline ( IL + 42 ) = { IP + 745 : IP + 748, IP + 745 };
Line Loop ( ILL + 30 ) = { IL + 42 };Point ( IP + 749 ) = {-0.2985312663282492, 0.03138611932552535, 0 };
Point ( IP + 750 ) = {-0.3013226215653722, 0.03339941283085814, 0 };
Point ( IP + 751 ) = {-0.3005378410159069, 0.0298166710402719, 0 };
Point ( IP + 752 ) = {-0.2985327451706434, 0.03137705588292353, 0 };
LoopStart43 = IP + 749;
LoopEnd43 = IP + 752;
BSpline ( IL + 43 ) = { IP + 749 : IP + 752, IP + 749 };
Line Loop ( ILL + 31 ) = { IL + 43 };Point ( IP + 753 ) = {-0.5728396045310096, 0.1373022357548054, 0 };
Point ( IP + 754 ) = {-0.570129505626794, 0.1365427595170914, 0 };
Point ( IP + 755 ) = {-0.5735013307106088, 0.1416313126534113, 0 };
Point ( IP + 756 ) = {-0.5728494466636797, 0.1373045947865649, 0 };
LoopStart44 = IP + 753;
LoopEnd44 = IP + 756;
BSpline ( IL + 44 ) = { IP + 753 : IP + 756, IP + 753 };
Line Loop ( ILL + 32 ) = { IL + 44 };Point ( IP + 757 ) = {-0.2089457470030515, 0.6835018678667604, 0 };
Point ( IP + 758 ) = {-0.2051876153871187, 0.6841983069462333, 0 };
Point ( IP + 759 ) = {-0.2119349967196027, 0.6852546312475626, 0 };
Point ( IP + 760 ) = {-0.20896616896887, 0.683497540946428, 0 };
LoopStart45 = IP + 757;
LoopEnd45 = IP + 760;
BSpline ( IL + 45 ) = { IP + 757 : IP + 760, IP + 757 };
Line Loop ( ILL + 33 ) = { IL + 45 };Point ( IP + 761 ) = {-0.1843549746273385, 0.64297632915178, 0 };
Point ( IP + 762 ) = {-0.1843737658509932, 0.6429877340940949, 0 };
Point ( IP + 763 ) = {-0.1847906272317326, 0.6391055758334918, 0 };
Point ( IP + 764 ) = {-0.1820173521752974, 0.6472955547023317, 0 };
LoopStart46 = IP + 761;
LoopEnd46 = IP + 764;
BSpline ( IL + 46 ) = { IP + 761 : IP + 764, IP + 761 };
Line Loop ( ILL + 34 ) = { IL + 46 };Point ( IP + 765 ) = {-0.1525003594272461, 0.6185589534990714, 0 };
Point ( IP + 766 ) = {-0.1537174864001709, 0.6232032537105205, 0 };
Point ( IP + 767 ) = {-0.1525159166401516, 0.6169243665922907, 0 };
Point ( IP + 768 ) = {-0.1445596937269618, 0.613444488518842, 0 };
Point ( IP + 769 ) = {-0.1525066144441239, 0.6185468856571171, 0 };
LoopStart47 = IP + 765;
LoopEnd47 = IP + 769;
BSpline ( IL + 47 ) = { IP + 765 : IP + 769, IP + 765 };
Line Loop ( ILL + 35 ) = { IL + 47 };Point ( IP + 770 ) = {-0.02997683984013063, 0.5724329929253309, 0 };
Point ( IP + 771 ) = {-0.02997169227122207, 0.5724355147922429, 0 };
Point ( IP + 772 ) = {-0.02697480614694542, 0.5729025072166665, 0 };
Point ( IP + 773 ) = {-0.03478890728377091, 0.5717687511228121, 0 };
LoopStart48 = IP + 770;
LoopEnd48 = IP + 773;
BSpline ( IL + 48 ) = { IP + 770 : IP + 773, IP + 770 };
Line Loop ( ILL + 36 ) = { IL + 48 };
Field [ IFI + 0] = Attractor;

////////////////////////////////////////////////////////////////////////////////
////////////////////////////////////////////////////////////////////////////////
////////////////////////////////////////////////////////////////////////////////
//Point 3: 89W lon 15N lat
Point_lon_rad = (82)*(Pi/180);
Point_lat_rad = (15)*(Pi/180);
Point_3_stereographic_x = -Cos(Fabs(Point_lon_rad))*Cos(Fabs(Point_lat_rad))/
  ( 1 + Sin(Fabs(Point_lat_rad)) );
Point_3_stereographic_y = Cos(Fabs(Point_lat_rad))*Sin(Fabs(Point_lon_rad))/
  ( 1 + Sin(Fabs(Point_lat_rad)) );
Point(IP + 10001) = {Point_3_stereographic_x, Point_3_stereographic_y, 0};
//Point 4: 89W lon 65N lat
Point_lon_rad = (66)*(Pi/180);
Point_lat_rad = (65)*(Pi/180);
Point_4_stereographic_x = -Cos(Fabs(Point_lon_rad))*Cos(Fabs(Point_lat_rad))/
  ( 1 + Sin(Fabs(Point_lat_rad)) );
Point_4_stereographic_y = Cos(Fabs(Point_lat_rad))*Sin(Fabs(Point_lon_rad))/
  ( 1 + Sin(Fabs(Point_lat_rad)) );
Point(IP + 10002) = {Point_4_stereographic_x, Point_4_stereographic_y, 0};
//Point 5: 10E lon 65N lat
Point_lon_rad = (53)*(Pi/180);
Point_lat_rad = (65)*(Pi/180);
Point_5_stereographic_x = -Cos(Fabs(Point_lon_rad))*Cos(Fabs(Point_lat_rad))/
  ( 1 + Sin(Fabs(Point_lat_rad)) );
Point_5_stereographic_y = Cos(Fabs(Point_lat_rad))*Sin(Fabs(Point_lon_rad))/
  ( 1 + Sin(Fabs(Point_lat_rad)) );
Point(IP + 10003) = {Point_5_stereographic_x, Point_5_stereographic_y, 0};
//Point 6: 10E lon 15N lat
Point_lon_rad = (17)*(Pi/180);
Point_lat_rad = (15)*(Pi/180);
Point_6_stereographic_x = -Cos(Fabs(Point_lon_rad))*Cos(Fabs(Point_lat_rad))/
  ( 1 + Sin(Fabs(Point_lat_rad)) );
Point_6_stereographic_y = Cos(Fabs(Point_lat_rad))*Sin(Fabs(Point_lon_rad))/
  ( 1 + Sin(Fabs(Point_lat_rad)) );
Point(IP + 10004) = {Point_6_stereographic_x, Point_6_stereographic_y, 0};
//Point 7: 89W lon 65N lat
Point_lon_rad = (40)*(Pi/180);
Point_lat_rad = (65)*(Pi/180);
Point_7_stereographic_x = -Cos(Fabs(Point_lon_rad))*Cos(Fabs(Point_lat_rad))/
  ( 1 + Sin(Fabs(Point_lat_rad)) );
Point_7_stereographic_y = Cos(Fabs(Point_lat_rad))*Sin(Fabs(Point_lon_rad))/
  ( 1 + Sin(Fabs(Point_lat_rad)) );
Point(IP + 10005) = {Point_7_stereographic_x, Point_7_stereographic_y, 0};
//Point 8: 10E lon 65N lat
Point_lon_rad = (24)*(Pi/180);
Point_lat_rad = (65)*(Pi/180);
Point_8_stereographic_x = -Cos(Fabs(Point_lon_rad))*Cos(Fabs(Point_lat_rad))/
  ( 1 + Sin(Fabs(Point_lat_rad)) );
Point_8_stereographic_y = Cos(Fabs(Point_lat_rad))*Sin(Fabs(Point_lon_rad))/
  ( 1 + Sin(Fabs(Point_lat_rad)) );
Point(IP + 10006) = {Point_8_stereographic_x, Point_8_stereographic_y, 0};
//Point 9: 10E lon 65N lat
Point_lon_rad = (0)*(Pi/180);
Point_lat_rad = (65)*(Pi/180);
Point_9_stereographic_x = -Cos(Fabs(Point_lon_rad))*Cos(Fabs(Point_lat_rad))/
  ( 1 + Sin(Fabs(Point_lat_rad)) );
Point_9_stereographic_y = Cos(Fabs(Point_lat_rad))*Sin(Fabs(Point_lon_rad))/
  ( 1 + Sin(Fabs(Point_lat_rad)) );
Point(IP + 10007) = {Point_9_stereographic_x, Point_9_stereographic_y, 0};
//Point 10: 10E lon 65N lat
Point_lon_rad = (15)*(Pi/180);
Point_lat_rad = (65)*(Pi/180);
Point_10_stereographic_x = -Cos(Fabs(Point_lon_rad))*Cos(Fabs(Point_lat_rad))/
  ( 1 + Sin(Fabs(Point_lat_rad)) );
Point_10_stereographic_y = Cos(Fabs(Point_lat_rad))*Sin(Fabs(Point_lon_rad))/
  ( 1 + Sin(Fabs(Point_lat_rad)) );
Point(IP + 10008) = {Point_10_stereographic_x, Point_10_stereographic_y, 0};

//Function to break distance between two points into smaller segments.
Function DrawParallel
  alpha = parallelSectionStartingY/parallelSectionStartingX;
  parallelRadius = Sqrt(parallelSectionStartingX^2 + parallelSectionStartingY^2);
  deltaAlpha = (parallelSectionEndingY/parallelSectionEndingX -
    parallelSectionStartingY/parallelSectionStartingX)/pointsOnParallel;
  For t In {1:pointsOnParallel}
    alpha += deltaAlpha;
    newParallelPointX = (parallelSectionStartingX/Fabs(parallelSectionStartingX))
      *parallelRadius/(Sqrt(alpha^2 + 1));
    newParallelPointY = newParallelPointX*alpha;
    newPointOnParallel = newp;
    Point(newPointOnParallel) = {newParallelPointX, newParallelPointY, 0};
  EndFor
  BSpline(newParallelID) = {firstPointOnParallel, newPointOnParallel-
    (pointsOnParallel-1):newPointOnParallel, lastPointOnParallel};
Return

//Draw south-most zonal of the Domain. Point 3 to Point 6
//Assign parameters to variables and then call function DrawParallel,
pointsOnParallel = 30;
parallelSectionStartingX = Point_3_stereographic_x;
parallelSectionStartingY = Point_3_stereographic_y;
firstPointOnParallel = IP + 10001;
parallelSectionEndingX = Point_6_stereographic_x;
parallelSectionEndingY = Point_6_stereographic_y;
lastPointOnParallel = IP + 10004;
newParallelID = ILL + 80;
Call DrawParallel;
//Draw north-most zonal of the Domain. Point 4 to Point 5
//Assign parameters to variables and then call function DrawParallel,
pointsOnParallel = 30;
parallelSectionStartingX = Point_4_stereographic_x;
parallelSectionStartingY = Point_4_stereographic_y;
firstPointOnParallel = IP + 10002;
parallelSectionEndingX = Point_5_stereographic_x;
parallelSectionEndingY = Point_5_stereographic_y;
lastPointOnParallel = IP + 10003;
newParallelID = ILL + 81;
Call DrawParallel;
pointsOnParallel = 30;
parallelSectionStartingX = Point_7_stereographic_x;
parallelSectionStartingY = Point_7_stereographic_y;
firstPointOnParallel = IP + 10005;
parallelSectionEndingX = Point_8_stereographic_x;
parallelSectionEndingY = Point_8_stereographic_y;
lastPointOnParallel = IP + 10006;
newParallelID = ILL + 82;
Call DrawParallel;
pointsOnParallel = 30;
parallelSectionStartingX = Point_9_stereographic_x;
parallelSectionStartingY = Point_9_stereographic_y;
firstPointOnParallel = IP + 10007;
parallelSectionEndingX = Point_10_stereographic_x;
parallelSectionEndingY = Point_10_stereographic_y;
lastPointOnParallel = IP + 10008;
newParallelID = ILL + 83;
Call DrawParallel;
Field [ IFI + 0].NodesList = { IP + 2 : IP + 773 };
////////////////////////////////////////////////////////////////////////////////
////////////////////////////////////////////////////////////////////////////////
////////////////////////////////////////////////////////////////////////////////

Line(85) = {133, 10002};
Line(86) = {10009, 567};
Line(87) = {10006, 410};
Split Line(8) {443};
Delete {
  Line{89};
}
Split Line(82) {10040};
Delete {
  Line{89};
}
Line(91) = {10040, 443};
Split Line(7) {412};
Delete {
  Line{92};
}
Line(94) = {10004, 412};
Delete {
  Line{9};
}
Split Line(4) {311};
Delete {
  Line{96};
}
Line(96) = {451, 311};
Split Line(83) {10098};
Delete {
  Line{98};
}
Line(98) = {10098, 561};
Split Line(1) {5};
Delete {
  Line{99};
}
Line(101) = {10008, 5};
Line(102) = {132, 10005};
Split Line(2) {85};
Split Line(3) {113};
Delete {
  Line{104};
}
Delete {
  Line{105};
}
Split Line(106) {114};
Delete {
  Line{107};
}
Line(109) = {85, 114};
Split Line(100) {38};
Delete {
  Line{111};
}
Line(111) = {38, 41};
Split Line(14) {569, 572};
Delete {
  Line{112};
}
Split Line(10) {478, 495};
Delete {
  Line{114};
}
Line(116) = {478, 572};
Line(117) = {569, 495};
Split Line(115) {497, 454};
Delete {
  Line{119};
}
Split Line(103) {59, 66};
Delete {
  Line{122};
}
Line(124) = {497, 66};
Line(125) = {454, 59};
Delete {
  Line{5};
}
Delete {
  Line{18};
}
Delete {
  Line{22};
}
Delete {
  Line{26};
}
Delete {
  Line{36};
}
Delete {
  Line{38};
}
Delete {
  Line{33};
}
Delete {
  Line{45};
}
Delete {
  Line{27};
}
Delete {
  Line{48};
}
Delete {
  Line{42};
}
Delete {
  Line{41};
}
Delete {
  Line{31};
}
Delete {
  Line{19};
}
Delete {
  Line{37};
}
Delete {
  Line{47};
}
Delete {
  Line{39};
}
Delete {
  Line{29};
}
Delete {
  Line{24, 20};
}
Delete {
  Line{23};
}
Delete {
  Line{34};
}
Delete {
  Line{30};
}
Delete {
  Line{28};
}
Delete {
  Line{25};
}
Delete {
  Line{17};
}
Delete {
  Line{16};
}
Delete {
  Line{40};
}
Delete {
  Line{43};
}
Delete {
  Line{32};
}
Delete {
  Line{35};
}
Delete {
  Line{44};
}
Delete {
  Line{49};
}
Split Line(95) {254, 275};
Delete {
  Line{127};
}
Split Line(11) {533, 525};
Delete {
  Line{129};
}
Line(131) = {254, 533};
Line(132) = {525, 275};
Delete {
  Line{21};
}
Split Line(12) {539, 540};
Delete {
  Line{134};
}
Split Line(15) {600, 599};
Delete {
  Line{46, 134};
}
Line(136) = {539, 600};
Line(137) = {540, 599};
Split Line(135) {607, 593};
Delete {
  Line{139};
}
Split Line(81) {10027, 10028};
Delete {
  Line{142};
}
Line(144) = {607, 10027};
Line(145) = {10028, 593};

////////////////////////////////////////////////////////////////////////////////
/////////////////DELETE EXCESS POINTS WHICH DON'T CORRESPOND TO LINES///////////
Delete {
  Point{83, 80, 81, 82, 79, 84, 116, 114, 115, 85, 117, 113, 78, 77, 86, 112, 118, 755, 754, 757, 76, 75, 119, 756, 714, 111, 110, 700, 716, 713, 120, 87, 715, 121, 722, 701, 721, 724, 109, 723, 88, 702, 699, 89, 108, 90, 122, 92, 93, 107, 91, 123, 74, 106, 94, 124, 670, 73, 72, 68, 70, 67, 671, 667, 71, 66, 669, 69, 668, 125, 95, 105, 96, 64, 65, 97, 497, 63, 589, 98, 588, 104, 498, 587, 62, 590, 568, 586, 499, 585, 126, 496, 61, 103, 584, 495, 99, 569, 128, 127, 583, 582, 500, 453, 102, 494, 492, 129, 60, 581, 626, 622, 627, 493, 580, 491, 59, 579, 649, 454, 570, 456, 646, 650, 455, 130, 625, 490, 577, 489, 578, 623, 100, 647, 101, 624, 571, 648, 575, 460, 459, 488, 484, 576, 483, 487, 457, 58, 573, 485, 574, 572, 458, 461, 462, 478, 463, 56, 486, 464, 131, 57, 465, 479, 482, 481, 751, 480, 752, 54, 750, 753, 476, 55, 466, 477, 53, 467, 711, 52, 475, 468, 712, 709, 710, 51, 695, 470, 694, 698, 696, 474, 132, 473, 50, 49, 469, 697, 48, 10005, 10039, 47, 472, 471, 46, 45, 42, 44, 43, 41, 37, 38, 36, 35, 33, 39, 32, 31, 34, 10038, 30, 29, 28, 27, 26, 40, 565, 25, 19, 566, 567, 17, 16, 18, 23, 20, 24, 564, 22, 15, 14, 563, 21, 13, 562, 12, 11, 10125, 10126, 10124, 10127, 10123, 10128, 10122, 10129, 10009, 10121, 10120, 10119, 10118, 10117, 10116, 10115, 10, 10114, 10113, 9, 10112, 10111, 10110, 10109, 10108, 10107, 10106, 561, 10105, 10104, 10007, 10099, 8, 10103, 10098, 10102, 10097, 10101, 10096, 10100, 7, 10095, 10008, 6, 10094, 10093, 10092, 10091, 5, 10090, 10089, 3, 10088, 391, 10087, 4, 10086, 392, 10085, 10084, 395, 394, 10083, 390, 436, 389, 397, 393, 10082, 398, 10037, 507, 10081, 396, 400, 508, 435, 10080, 399, 509, 10079, 506, 434, 514, 401, 10078, 433, 10077, 403, 404, 505, 510, 10076, 405, 512, 432, 407, 408, 10075, 503, 516, 10074, 511, 431, 406, 513, 402, 502, 504, 10073, 409, 515, 10072, 410, 10071, 10070, 517, 518, 10006, 430, 501, 538, 519, 429, 520, 537, 525, 536, 428, 523, 275, 427, 522, 521, 277, 526, 426, 524, 278, 425, 535, 280, 423, 276, 424, 279, 274, 281, 527, 422, 528, 421, 420, 282, 534, 529, 530, 284, 411, 419, 273, 418, 533, 283, 286, 416, 413, 531, 285, 532, 417, 415, 412, 10036, 634, 640, 414, 272, 287, 288, 635, 289, 637, 636, 290, 292, 291, 254, 10004, 10069, 639, 293, 253, 10068, 638, 294, 652, 10067, 651, 655, 255, 657, 10066, 296, 10065, 297, 300, 295, 653, 298, 299, 10064, 656, 661, 10063, 302, 10062, 256, 301, 10061, 304, 303, 305, 252, 10060, 251, 659, 658, 264, 306, 10059, 654, 660, 265, 10058, 246, 307, 250, 260, 308, 10057, 258, 257, 10056, 263, 245, 10055, 259, 10054, 261, 262, 10053, 310, 266, 309, 10035, 10052, 313, 249, 315, 271, 311, 10051, 10050, 312, 747, 314, 247, 746, 749, 10049, 316, 248, 244, 10048, 317, 439, 438, 748, 10047, 270, 10046, 242, 440, 451, 437, 452, 10045, 243, 10044, 318, 442, 10043, 267, 10042, 319, 441, 10041, 443, 320, 10040, 241, 10003, 444, 240, 324, 323, 239, 325, 327, 322, 326, 328, 269, 268, 321, 329, 238, 237, 236, 235, 10034, 330, 331, 232, 231, 450, 332, 233, 449, 234, 448, 230, 333, 447, 229, 334, 446, 683, 682, 343, 342, 340, 339, 337, 335, 10033, 228, 731, 344, 730, 733, 338, 336, 445, 684, 681, 732, 341, 227, 226, 678, 706, 726, 679, 727, 347, 707, 704, 705, 346, 677, 680, 610, 728, 725, 729, 348, 703, 708, 345, 611, 225, 621, 609, 620, 349, 224, 613, 665, 350, 612, 619, 686, 352, 10032, 687, 222, 618, 351, 666, 662, 354, 664, 218, 221, 663, 223, 685, 688, 213, 216, 217, 212, 642, 353, 211, 210, 214, 209, 215, 220, 617, 219, 616, 641, 645, 208, 614, 207, 206, 615, 10031, 355, 643, 644, 373, 594, 596, 372, 593, 371, 366, 598, 597, 595, 10030, 365, 367, 205, 368, 364, 356, 370, 592, 369, 362, 764, 363, 718, 10029, 763, 762, 717, 720, 591, 608, 357, 358, 599, 768, 765, 742, 770, 766, 719, 744, 607, 601, 361, 767, 606, 769, 204, 743, 203, 359, 602, 741, 745, 740, 600, 760, 761, 758, 360, 10028, 540, 759, 202, 673, 674, 736, 739, 734, 542, 539, 560, 603, 10027, 605, 738, 735, 672, 676, 541, 737, 675, 604, 201, 543, 10026, 557, 558, 190, 199, 200, 192, 10025, 197, 189, 195, 629, 556, 555, 198, 559, 188, 191, 544, 630, 196, 193, 194, 10024, 628, 633, 545, 186, 10023, 632, 187, 631, 10022, 185, 774, 552, 551, 554, 771, 772, 553, 10021, 184, 773, 550, 10020, 691, 690, 183, 182, 692, 10019, 689, 693, 546, 10018, 10017, 549, 181, 547, 179, 10016, 180, 10015, 177, 178, 548, 10014, 176, 175, 10013, 174, 10012, 173, 10011, 10010, 172, 10002, 144, 171, 133, 145, 170, 169, 142, 134, 143, 167, 166, 168, 140, 165, 141, 138, 139, 146, 137, 164, 163, 135, 147, 162, 136, 161, 160, 148, 159, 149, 157, 158, 156, 155, 150, 154, 151, 153, 152, 388, 387, 386, 385, 378, 379, 376, 374, 377, 384, 381, 375, 380, 382, 383, 1};
}
Line(146) = {451, 437};
Split Line(6) {394};
Split Line(93) {434};
Delete {
  Line{150, 147};
}
Spline(150) = {434, 435, 389, 390, 391, 392, 393, 394};
Line Loop(151) = {96, -128, -132, -130, -131, -126, 85, 141, -144, -138, -136, -133, 137, -140, -145, 143, -102, -108, -109, -123, -124, -118, -117, -113, -116, -120, 125, -121, -111, -110, -101, 84, 86, -13, -98, -97, 87, -148, -150, -149, -94, -90, 91, -88, -146};
Plane Surface(152) = {151};
Physical Surface(153) = {152};
////////////////////THIS IS FOR CREATING THE MESH///////////////////////////////
lc = 300000;
Field[2] = MathEval;
Field[2].F = Sprintf("%g", lc);
Background Field = 2;
/////////////////////CREATE FINER MESH NEAR LAND////////////////////////////////
Field[3] = Threshold;
Field[3].DistMax = 2*lc;
Field[3].DistMin = 0.5*lc;
Field[3].IField = 1;
Field[3].LcMax = lc;
Field[3].LcMin = lc/6;
Background Field = 3;
Mesh.CharacteristicLengthExtendFromBoundary = 0;
Mesh.Algorithm = 6; // Frontal 2d
